Ejemplo3_Est/simulation/qsim/Ejemplo3_Est.msim.vcd
$comment
	File created using the following command:
		vcd file Ejemplo3_Est.msim.vcd -direction
$end
$date
	Wed Jun 16 22:54:17 2021
$end
$version
	ModelSim Version 10.5b
$end
$timescale
	1ps
$end

$scope module ejemplo_estructural_vhd_vec_tst $end
$var wire 1 ! SA [0] $end
$var wire 1 " SB [0] $end
$var wire 1 # Y [0] $end

$scope module i1 $end
$var wire 1 $ gnd $end
$var wire 1 % vcc $end
$var wire 1 & unknown $end
$var wire 1 ' devoe $end
$var wire 1 ( devclrn $end
$var wire 1 ) devpor $end
$var wire 1 * ww_devoe $end
$var wire 1 + ww_devclrn $end
$var wire 1 , ww_devpor $end
$var wire 1 - ww_SA [0] $end
$var wire 1 . ww_SB [0] $end
$var wire 1 / ww_Y [0] $end
$var wire 1 0 \~QUARTUS_CREATED_GND~I_combout\ $end
$var wire 1 1 \SB[0]~input_o\ $end
$var wire 1 2 \SA[0]~input_o\ $end
$var wire 1 3 \or1|F[0]~0_combout\ $end
$var wire 1 4 \ALT_INV_SB[0]~input_o\ $end
$var wire 1 5 \ALT_INV_SA[0]~input_o\ $end
$upscope $end
$upscope $end
$enddefinitions $end
#0
$dumpvars
0$
1%
x&
1'
1(
1)
1*
1+
1,
x0
01
12
13
14
05
1!
0"
1-
0.
1/
1#
$end
#10000
1"
1.
11
04
03
0/
0#
#15000
0"
0!
0.
0-
02
01
14
15
#20000
1"
1.
11
04
13
1/
1#
#25000
0"
0.
01
14
03
0/
0#
#30000
1"
1.
11
04
13
1/
1#
#35000
0"
0.
01
14
03
0/
0#
#40000
1"
1.
11
04
13
1/
1#
#50000
0"
0.
01
14
03
0/
0#
#75000
1!
1-
12
05
13
1/
1#
#80000
1"
1.
11
04
03
0/
0#
#85000
0"
0!
0.
0-
02
01
14
15
#90000
1"
1!
1.
1-
12
11
04
05
#95000
0!
0-
02
15
13
1/
1#
#100000
1!
1-
12
05
03
0/
0#
#105000
0"
0.
01
14
13
1/
1#
#110000
1"
0!
1.
0-
02
11
04
15
#115000
0"
1!
0.
1-
12
01
14
05
#125000
0!
0-
02
15
03
0/
0#
#135000
1!
1-
12
05
13
1/
1#
#145000
0!
0-
02
15
03
0/
0#
#150000
1"
1.
11
04
13
1/
1#
#155000
1!
1-
12
05
03
0/
0#
#165000
0!
0-
02
15
13
1/
1#
#170000
1!
1-
12
05
03
0/
0#
#175000
0"
0.
01
14
13
1/
1#
#180000
0!
0-
02
15
03
0/
0#
#185000
1!
1"
1-
1.
11
12
05
04
#190000
0!
0-
02
15
13
1/
1#
#195000
0"
0.
01
14
03
0/
0#
#200000
1!
1-
12
05
13
1/
1#
#205000
1"
1.
11
04
03
0/
0#
#215000
0"
0.
01
14
13
1/
1#
#220000
1"
0!
1.
0-
02
11
04
15
#225000
1!
1-
12
05
03
0/
0#
#230000
0!
0"
0-
0.
01
02
15
14
#245000
1!
1"
1-
1.
11
12
05
04
#250000
0!
0-
02
15
13
1/
1#
#255000
0"
0.
01
14
03
0/
0#
#265000
1"
1!
1.
1-
12
11
04
05
#270000
0"
0!
0.
0-
02
01
14
15
#285000
1!
1-
12
05
13
1/
1#
#290000
0!
0-
02
15
03
0/
0#
#295000
1!
1-
12
05
13
1/
1#
#305000
1"
1.
11
04
03
0/
0#
#315000
0"
0.
01
14
13
1/
1#
#325000
1"
0!
1.
0-
02
11
04
15
#330000
1!
1-
12
05
03
0/
0#
#340000
0!
0-
02
15
13
1/
1#
#350000
1!
1-
12
05
03
0/
0#
#355000
0!
0"
0-
0.
01
02
15
14
#375000
1!
1-
12
05
13
1/
1#
#380000
0!
0-
02
15
03
0/
0#
#385000
1!
1-
12
05
13
1/
1#
#390000
0!
0-
02
15
03
0/
0#
#395000
1!
1"
1-
1.
11
12
05
04
#400000
0!
0"
0-
0.
01
02
15
14
#405000
1!
1"
1-
1.
11
12
05
04
#410000
0"
0.
01
14
13
1/
1#
#420000
0!
0-
02
15
03
0/
0#
#425000
1"
1.
11
04
13
1/
1#
#430000
0"
0.
01
14
03
0/
0#
#435000
1!
1-
12
05
13
1/
1#
#440000
1"
1.
11
04
03
0/
0#
#445000
0"
0.
01
14
13
1/
1#
#450000
1"
1.
11
04
03
0/
0#
#455000
0!
0-
02
15
13
1/
1#
#460000
1!
1-
12
05
03
0/
0#
#465000
0!
0"
0-
0.
01
02
15
14
#470000
1"
1.
11
04
13
1/
1#
#475000
1!
1-
12
05
03
0/
0#
#485000
0!
0"
0-
0.
01
02
15
14
#490000
1!
1-
12
05
13
1/
1#
#495000
1"
1.
11
04
03
0/
0#
#500000
0"
0.
01
14
13
1/
1#
#505000
1"
0!
1.
0-
02
11
04
15
#510000
0"
0.
01
14
03
0/
0#
#515000
1"
1.
11
04
13
1/
1#
#520000
0"
0.
01
14
03
0/
0#
#525000
1"
1.
11
04
13
1/
1#
#530000
0"
1!
0.
1-
12
01
14
05
#535000
1"
1.
11
04
03
0/
0#
#540000
0!
0-
02
15
13
1/
1#
#545000
1!
1-
12
05
03
0/
0#
#555000
0!
0-
02
15
13
1/
1#
#565000
0"
0.
01
14
03
0/
0#
#570000
1"
1!
1.
1-
12
11
04
05
#575000
0!
0-
02
15
13
1/
1#
#580000
1!
0"
1-
0.
01
12
05
14
#605000
0!
0-
02
15
03
0/
0#
#610000
1!
1-
12
05
13
1/
1#
#615000
0!
1"
0-
1.
11
02
15
04
#625000
1!
1-
12
05
03
0/
0#
#630000
0!
0"
0-
0.
01
02
15
14
#645000
1"
1.
11
04
13
1/
1#
#650000
0"
1!
0.
1-
12
01
14
05
#655000
0!
0-
02
15
03
0/
0#
#660000
1!
1-
12
05
13
1/
1#
#665000
0!
0-
02
15
03
0/
0#
#670000
1!
1"
1-
1.
11
12
05
04
#680000
0"
0.
01
14
13
1/
1#
#685000
1"
0!
1.
0-
02
11
04
15
#695000
0"
0.
01
14
03
0/
0#
#700000
1"
1!
1.
1-
12
11
04
05
#705000
0"
0!
0.
0-
02
01
14
15
#715000
1"
1.
11
04
13
1/
1#
#720000
0"
0.
01
14
03
0/
0#
#730000
1"
1.
11
04
13
1/
1#
#735000
0"
0.
01
14
03
0/
0#
#740000
1!
1-
12
05
13
1/
1#
#760000
1"
1.
11
04
03
0/
0#
#770000
0"
0.
01
14
13
1/
1#
#775000
0!
0-
02
15
03
0/
0#
#780000
1"
1.
11
04
13
1/
1#
#785000
0"
1!
0.
1-
12
01
14
05
#790000
1"
0!
1.
0-
02
11
04
15
#805000
0"
1!
0.
1-
12
01
14
05
#810000
0!
0-
02
15
03
0/
0#
#820000
1"
1.
11
04
13
1/
1#
#825000
0"
1!
0.
1-
12
01
14
05
#830000
1"
0!
1.
0-
02
11
04
15
#835000
0"
1!
0.
1-
12
01
14
05
#845000
0!
0-
02
15
03
0/
0#
#850000
1!
1-
12
05
13
1/
1#
#855000
0!
1"
0-
1.
11
02
15
04
#860000
1!
0"
1-
0.
01
12
05
14
#875000
0!
0-
02
15
03
0/
0#
#880000
1"
1.
11
04
13
1/
1#
#890000
0"
0.
01
14
03
0/
0#
#895000
1"
1!
1.
1-
12
11
04
05
#905000
0"
0.
01
14
13
1/
1#
#910000
1"
0!
1.
0-
02
11
04
15
#915000
1!
1-
12
05
03
0/
0#
#920000
0!
0"
0-
0.
01
02
15
14
#925000
1"
1.
11
04
13
1/
1#
#930000
1!
1-
12
05
03
0/
0#
#935000
0!
0"
0-
0.
01
02
15
14
#940000
1!
1"
1-
1.
11
12
05
04
#945000
0!
0-
02
15
13
1/
1#
#950000
1!
1-
12
05
03
0/
0#
#960000
0!
0-
02
15
13
1/
1#
#965000
0"
0.
01
14
03
0/
0#
#970000
1"
1.
11
04
13
1/
1#
#975000
0"
0.
01
14
03
0/
0#
#980000
1"
1!
1.
1-
12
11
04
05
#990000
0!
0-
02
15
13
1/
1#
#995000
1!
1-
12
05
03
0/
0#
