Ejemplo1_MK/simulation/qsim/Ejemplo1_MK.msim.vcd
$comment
	File created using the following command:
		vcd file Ejemplo1_MK.msim.vcd -direction
$end
$date
	Wed Jun 16 15:30:29 2021
$end
$version
	ModelSim Version 10.5b
$end
$timescale
	1ps
$end

$scope module ejemplo1_mk_vhd_vec_tst $end
$var wire 1 ! A [0] $end
$var wire 1 " B [0] $end
$var wire 1 # C [0] $end
$var wire 1 $ D [0] $end
$var wire 1 % F [0] $end

$scope module i1 $end
$var wire 1 & gnd $end
$var wire 1 ' vcc $end
$var wire 1 ( unknown $end
$var wire 1 ) devoe $end
$var wire 1 * devclrn $end
$var wire 1 + devpor $end
$var wire 1 , ww_devoe $end
$var wire 1 - ww_devclrn $end
$var wire 1 . ww_devpor $end
$var wire 1 / ww_A [0] $end
$var wire 1 0 ww_B [0] $end
$var wire 1 1 ww_C [0] $end
$var wire 1 2 ww_D [0] $end
$var wire 1 3 ww_F [0] $end
$var wire 1 4 \~QUARTUS_CREATED_GND~I_combout\ $end
$var wire 1 5 \B[0]~input_o\ $end
$var wire 1 6 \C[0]~input_o\ $end
$var wire 1 7 \A[0]~input_o\ $end
$var wire 1 8 \D[0]~input_o\ $end
$var wire 1 9 \F~0_combout\ $end
$var wire 1 : \ALT_INV_A[0]~input_o\ $end
$var wire 1 ; \ALT_INV_C[0]~input_o\ $end
$var wire 1 < \ALT_INV_B[0]~input_o\ $end
$var wire 1 = \ALT_INV_D[0]~input_o\ $end
$upscope $end
$upscope $end
$enddefinitions $end
#0
$dumpvars
0&
1'
x(
1)
1*
1+
1,
1-
1.
x4
05
06
17
18
19
0:
1;
1<
0=
1!
0"
0#
1$
1/
00
01
12
13
1%
$end
#5000
0!
1"
0$
0/
10
02
08
15
07
1:
0<
1=
#10000
1$
12
18
0=
09
03
0%
#15000
0$
1!
0"
1#
02
1/
00
11
16
05
17
08
1=
0:
1<
0;
#20000
1$
0!
12
0/
07
18
0=
1:
#25000
1"
0#
10
01
06
15
0<
1;
#30000
0$
1!
02
1/
17
08
1=
0:
#35000
0"
1#
00
11
16
05
1<
0;
#40000
1"
0!
10
0/
07
15
0<
1:
19
13
1%
#45000
0#
01
06
1;
#50000
1#
0"
1!
11
00
1/
17
05
16
0;
1<
0:
09
03
0%
#55000
0#
1"
0!
1$
01
10
0/
12
18
07
15
06
1;
0<
1:
0=
#60000
1#
0$
11
02
08
16
0;
1=
19
13
1%
#65000
0#
1!
01
1/
17
06
1;
0:
09
03
0%
#70000
1#
0"
11
00
05
16
0;
1<
#75000
0#
1"
0!
1$
01
10
0/
12
18
07
15
06
1;
0<
1:
0=
#80000
0"
1!
0$
00
1/
02
08
17
05
1<
0:
1=
#85000
0!
1$
0/
12
18
07
1:
0=
19
13
1%
#90000
1!
1#
1/
11
16
17
0:
0;
09
03
0%
#95000
0$
02
08
1=
#100000
1$
0!
0#
12
0/
01
06
07
18
0=
1:
1;
19
13
1%
#105000
1"
10
15
0<
09
03
0%
#110000
0$
02
08
1=
19
13
1%
#115000
0"
00
05
1<
09
03
0%
#120000
1"
10
15
0<
19
13
1%
#125000
1!
1/
17
0:
09
03
0%
#130000
0!
1$
0/
12
18
07
1:
0=
#135000
1!
0$
1/
02
08
17
0:
1=
#145000
0"
1#
00
11
16
05
1<
0;
#150000
1"
0#
1$
10
01
12
18
06
15
0<
1;
0=
#155000
0"
00
05
1<
19
13
1%
#160000
1"
0$
10
02
08
15
0<
1=
09
03
0%
#165000
0"
0!
00
0/
07
05
1<
1:
#170000
1#
11
16
0;
19
13
1%
#175000
0#
1"
1!
1$
01
10
1/
12
18
17
15
06
1;
0<
0:
0=
09
03
0%
#180000
1#
0$
11
02
08
16
0;
1=
#185000
1$
0"
0!
12
00
0/
07
05
18
0=
1<
1:
#190000
0$
0#
02
01
06
08
1=
1;
#195000
1$
1#
1"
1!
12
11
10
1/
17
15
16
18
0=
0;
0<
0:
#200000
0$
0#
0!
02
01
0/
07
06
08
1=
1;
1:
19
13
1%
#210000
1!
1/
17
0:
09
03
0%
#215000
0!
1$
0"
0/
12
00
05
18
07
1:
0=
1<
19
13
1%
#220000
1#
11
16
0;
09
03
0%
#225000
0#
01
06
1;
19
13
1%
#230000
0$
02
08
1=
09
03
0%
#235000
1$
1"
12
10
15
18
0=
0<
#240000
1#
1!
11
1/
17
16
0;
0:
#245000
0#
01
06
1;
#250000
0!
0/
07
1:
#255000
1!
0$
1/
02
08
17
0:
1=
#260000
0!
1$
1#
0"
0/
12
11
00
05
16
18
07
1:
0=
0;
1<
#270000
0#
01
06
1;
19
13
1%
#275000
1!
1/
17
0:
#280000
0!
1"
0/
10
15
07
1:
0<
09
03
0%
#285000
0"
0$
00
02
08
05
1<
1=
#290000
1$
1!
12
1/
17
18
0=
0:
19
13
1%
#295000
0$
1#
02
11
16
08
1=
0;
09
03
0%
#300000
1$
12
18
0=
#305000
0$
0#
02
01
06
08
1=
1;
#310000
1#
0!
11
0/
07
16
0;
1:
19
13
1%
#315000
1!
1$
1"
1/
12
10
15
18
17
0:
0=
0<
09
03
0%
#320000
0#
01
06
1;
#330000
0!
0/
07
1:
#335000
0"
00
05
1<
19
13
1%
#340000
1"
10
15
0<
09
03
0%
#345000
1!
0$
1/
02
08
17
0:
1=
#350000
0!
1#
0/
11
16
07
1:
0;
19
13
1%
#355000
1!
0#
1$
1/
01
12
18
06
17
0:
1;
0=
09
03
0%
#360000
0!
1#
0$
0/
11
02
08
16
07
1:
0;
1=
19
13
1%
#365000
0#
0"
01
00
05
06
1;
1<
09
03
0%
#370000
1"
1!
10
1/
17
15
0<
0:
#375000
0"
1$
00
12
18
05
1<
0=
19
13
1%
#380000
0!
1#
0/
11
16
07
1:
0;
09
03
0%
#385000
0#
1"
01
10
15
06
1;
0<
#395000
1#
0"
1!
11
00
1/
17
05
16
0;
1<
0:
#400000
0$
02
08
1=
#405000
1"
10
15
0<
#410000
1$
12
18
0=
#415000
0"
0#
00
01
06
05
1<
1;
19
13
1%
#420000
1#
0$
11
02
08
16
0;
1=
09
03
0%
#425000
0#
1$
0!
01
12
0/
07
18
06
1;
0=
1:
19
13
1%
#430000
0$
02
08
1=
09
03
0%
#435000
1$
1!
12
1/
17
18
0=
0:
19
13
1%
#440000
0$
1"
02
10
15
08
1=
0<
09
03
0%
#445000
0"
1#
00
11
16
05
1<
0;
#450000
0#
1$
01
12
18
06
1;
0=
19
13
1%
#455000
0$
02
08
1=
09
03
0%
#460000
1"
0!
10
0/
07
15
0<
1:
19
13
1%
#465000
1!
1$
1#
1/
12
11
16
18
17
0:
0=
0;
09
03
0%
#470000
0!
0"
0/
00
05
07
1:
1<
#475000
1!
0$
1/
02
08
17
0:
1=
#480000
0!
1$
0/
12
18
07
1:
0=
#485000
0$
1"
02
10
15
08
1=
0<
19
13
1%
#490000
0"
1!
00
1/
17
05
1<
0:
09
03
0%
#495000
1"
1$
10
12
18
15
0<
0=
#500000
0"
0#
00
01
06
05
1<
1;
19
13
1%
#510000
1"
1#
0$
0!
10
11
02
0/
07
08
16
15
0<
0;
1=
1:
#515000
0"
0#
1!
00
01
1/
17
06
05
1<
1;
0:
09
03
0%
#520000
0!
0/
07
1:
#525000
1"
1#
1$
10
11
12
18
16
15
0<
0;
0=
#535000
0#
1!
01
1/
17
06
1;
0:
#540000
1#
0!
0"
11
0/
00
05
07
16
0;
1:
1<
#545000
1!
1"
1/
10
15
17
0:
0<
#550000
0!
0#
0$
0/
01
02
08
06
07
1:
1;
1=
19
13
1%
#555000
1#
1$
0"
11
12
00
05
18
16
0;
0=
1<
09
03
0%
#560000
0$
1"
02
10
15
08
1=
0<
19
13
1%
#565000
0#
01
06
1;
#570000
1$
12
18
0=
09
03
0%
#575000
1#
1!
11
1/
17
16
0;
0:
#580000
0$
02
08
1=
#585000
1$
0!
12
0/
07
18
0=
1:
#590000
0#
01
06
1;
#595000
1!
0"
1/
00
05
17
0:
1<
19
13
1%
#600000
0!
1"
1#
0$
0/
10
11
02
08
16
15
07
1:
0<
0;
1=
#605000
0"
00
05
1<
#610000
1!
1/
17
0:
09
03
0%
#615000
0!
1$
0/
12
18
07
1:
0=
#620000
0$
02
08
1=
19
13
1%
#625000
1!
1/
17
0:
09
03
0%
#630000
0!
0#
0/
01
06
07
1:
1;
#635000
1!
1#
1"
1/
11
10
15
16
17
0:
0;
0<
#640000
0!
0/
07
1:
19
13
1%
#645000
1!
0#
1/
01
06
17
0:
1;
09
03
0%
#650000
0"
1$
00
12
18
05
1<
0=
19
13
1%
#655000
0$
0!
02
0/
07
08
1=
1:
09
03
0%
#665000
1$
1#
12
11
16
18
0=
0;
#670000
1!
1"
1/
10
15
17
0:
0<
#675000
0"
0$
00
02
08
05
1<
1=
#680000
1$
12
18
0=
#685000
0$
02
08
1=
#690000
1$
1"
0!
0#
12
10
0/
01
06
07
15
18
0=
0<
1:
1;
#695000
0$
0"
02
00
05
08
1=
1<
#700000
1$
1#
12
11
16
18
0=
0;
#705000
0$
0#
02
01
06
08
1=
1;
#710000
1$
1#
12
11
16
18
0=
0;
#715000
0#
1"
01
10
15
06
1;
0<
#720000
1!
1/
17
0:
#725000
0!
1#
0/
11
16
07
1:
0;
#735000
1!
0#
0"
1/
01
00
05
06
17
0:
1;
1<
19
13
1%
#740000
0!
1#
0/
11
16
07
1:
0;
09
03
0%
#745000
1!
0$
1/
02
08
17
0:
1=
#750000
1$
0#
12
01
06
18
0=
1;
19
13
1%
#755000
0$
0!
1"
02
0/
10
15
07
08
1=
1:
0<
#760000
1!
0"
1/
00
05
17
0:
1<
09
03
0%
#765000
0!
1"
0/
10
15
07
1:
0<
19
13
1%
#775000
0"
1$
1#
00
12
11
16
18
05
1<
0=
0;
09
03
0%
#780000
1"
0$
0#
1!
10
02
01
1/
17
06
08
15
0<
1=
1;
0:
#785000
0"
0!
00
0/
07
05
1<
1:
#790000
1"
1!
10
1/
17
15
0<
0:
#795000
0"
00
05
1<
#800000
1#
11
16
0;
#805000
0#
0!
1$
01
0/
12
18
07
06
1;
1:
0=
19
13
1%
#810000
1#
1!
0$
11
1/
02
08
17
16
0;
0:
1=
09
03
0%
#815000
0#
0!
1$
1"
01
0/
12
10
15
18
07
06
1;
1:
0=
0<
#825000
1!
0$
0"
1/
02
00
05
08
17
0:
1=
1<
#830000
1$
12
18
0=
19
13
1%
#835000
0!
1"
1#
0/
10
11
16
15
07
1:
0<
0;
09
03
0%
#840000
1!
1/
17
0:
#845000
0"
00
05
1<
#850000
1"
0!
0#
10
0/
01
06
07
15
0<
1:
1;
#855000
1#
0$
11
02
08
16
0;
1=
19
13
1%
#860000
0"
1!
00
1/
17
05
1<
0:
09
03
0%
#865000
1"
0#
10
01
06
15
0<
1;
#870000
1#
1$
11
12
18
16
0;
0=
#875000
0#
0$
01
02
08
06
1;
1=
#880000
1#
1$
11
12
18
16
0;
0=
#885000
0$
0"
02
00
05
08
1=
1<
#890000
0#
01
06
1;
#895000
1$
1"
0!
12
10
0/
07
15
18
0=
0<
1:
#900000
0$
1#
02
11
16
08
1=
0;
19
13
1%
#905000
1$
1!
12
1/
17
18
0=
0:
09
03
0%
#910000
0!
0#
0"
0/
01
00
05
06
07
1:
1;
1<
19
13
1%
#915000
0$
02
08
1=
09
03
0%
#920000
1$
1!
1#
1"
12
1/
11
10
15
16
17
18
0=
0:
0;
0<
#925000
0$
0"
02
00
05
08
1=
1<
#930000
1"
0!
10
0/
07
15
0<
1:
19
13
1%
#935000
0"
0#
00
01
06
05
1<
1;
09
03
0%
#940000
1!
1$
1/
12
18
17
0:
0=
19
13
1%
#945000
0!
0$
1"
1#
0/
02
10
11
16
15
08
07
1:
1=
0<
0;
#950000
1$
0"
12
00
05
18
0=
1<
09
03
0%
#955000
0$
1!
02
1/
17
08
1=
0:
#960000
0!
1"
0/
10
15
07
1:
0<
19
13
1%
#965000
1!
1$
1/
12
18
17
0:
0=
09
03
0%
#970000
0!
0"
0#
0/
00
01
06
05
07
1:
1<
1;
19
13
1%
#975000
0$
02
08
1=
09
03
0%
#980000
1$
12
18
0=
19
13
1%
#985000
1#
11
16
0;
09
03
0%
#990000
0#
0$
01
02
08
06
1;
1=
#995000
1"
10
15
0<
19
13
1%
