Ejemplo7_Cap5/simulation/qsim/EjemploFF.msim.vcd
$comment
	File created using the following command:
		vcd file EjemploFF.msim.vcd -direction
$end
$date
	Wed Aug 04 16:50:40 2021
$end
$version
	ModelSim Version 10.5b
$end
$timescale
	1ps
$end

$scope module ringcntv2_vhd_vec_tst $end
$var wire 1 ! Clk $end
$var wire 1 " en $end
$var wire 1 # q [3] $end
$var wire 1 $ q [2] $end
$var wire 1 % q [1] $end
$var wire 1 & q [0] $end
$var wire 1 ' resetn $end

$scope module i1 $end
$var wire 1 ( gnd $end
$var wire 1 ) vcc $end
$var wire 1 * unknown $end
$var wire 1 + devoe $end
$var wire 1 , devclrn $end
$var wire 1 - devpor $end
$var wire 1 . ww_devoe $end
$var wire 1 / ww_devclrn $end
$var wire 1 0 ww_devpor $end
$var wire 1 1 ww_Clk $end
$var wire 1 2 ww_resetn $end
$var wire 1 3 ww_en $end
$var wire 1 4 ww_q [3] $end
$var wire 1 5 ww_q [2] $end
$var wire 1 6 ww_q [1] $end
$var wire 1 7 ww_q [0] $end
$var wire 1 8 \~QUARTUS_CREATED_GND~I_combout\ $end
$var wire 1 9 \Clk~input_o\ $end
$var wire 1 : \Clk~inputCLKENA0_outclk\ $end
$var wire 1 ; \Mux2~0_combout\ $end
$var wire 1 < \resetn~input_o\ $end
$var wire 1 = \en~input_o\ $end
$var wire 1 > \q[1]~reg0_q\ $end
$var wire 1 ? \Mux0~0_combout\ $end
$var wire 1 @ \q[3]~reg0_q\ $end
$var wire 1 A \Mux1~0_combout\ $end
$var wire 1 B \q[2]~reg0_q\ $end
$var wire 1 C \Mux3~0_combout\ $end
$var wire 1 D \q[0]~reg0_q\ $end
$var wire 1 E \ALT_INV_q[1]~reg0_q\ $end
$var wire 1 F \ALT_INV_q[0]~reg0_q\ $end
$var wire 1 G \ALT_INV_q[3]~reg0_q\ $end
$var wire 1 H \ALT_INV_q[2]~reg0_q\ $end
$upscope $end
$upscope $end
$enddefinitions $end
#0
$dumpvars
0!
0"
0'
0(
1)
x*
1+
1,
1-
1.
1/
10
01
02
03
x8
09
0:
0;
0<
0=
0>
1?
0@
0A
0B
0C
0D
1E
1F
1G
1H
0#
0$
0%
0&
04
05
06
07
$end
#5000
1!
11
19
1:
#10000
0!
01
09
0:
#15000
1!
11
19
1:
#20000
0!
01
09
0:
#25000
1!
11
19
1:
#30000
0!
01
09
0:
#35000
1!
11
19
1:
#40000
0!
1'
01
12
1<
09
0:
#45000
1!
11
19
1:
#50000
0!
01
09
0:
#55000
1!
11
19
1:
#60000
0!
1"
01
13
1=
09
0:
#65000
1!
11
19
1:
1@
0G
0?
1A
14
1#
#70000
0!
01
09
0:
#75000
1!
11
19
1:
0@
1B
0H
1G
1;
0A
15
04
1$
0#
#80000
0!
01
09
0:
#85000
1!
11
19
1:
1>
0B
1H
0E
0;
1C
05
16
1%
0$
#90000
0!
01
09
0:
#95000
1!
11
19
1:
0>
1D
0F
1E
0C
17
06
1&
0%
#100000
0!
01
09
0:
#105000
1!
11
19
1:
0D
1F
1?
07
0&
#110000
0!
01
09
0:
#115000
1!
11
19
1:
1@
0G
0?
1A
14
1#
#120000
0!
01
09
0:
#125000
1!
11
19
1:
0@
1B
0H
1G
1;
0A
15
04
1$
0#
#130000
0!
01
09
0:
#135000
1!
11
19
1:
1>
0B
1H
0E
0;
1C
05
16
1%
0$
#140000
0!
01
09
0:
#145000
1!
11
19
1:
0>
1D
0F
1E
0C
17
06
1&
0%
#150000
0!
01
09
0:
#155000
1!
11
19
1:
0D
1F
1?
07
0&
#160000
0!
01
09
0:
#165000
1!
11
19
1:
1@
0G
0?
1A
14
1#
#170000
0!
01
09
0:
#175000
1!
11
19
1:
0@
1B
0H
1G
1;
0A
15
04
1$
0#
#180000
0!
01
09
0:
#185000
1!
11
19
1:
1>
0B
1H
0E
0;
1C
05
16
1%
0$
#190000
0!
01
09
0:
#195000
1!
11
19
1:
0>
1D
0F
1E
0C
17
06
1&
0%
#200000
0!
01
09
0:
#205000
1!
11
19
1:
0D
1F
1?
07
0&
#210000
0!
01
09
0:
#215000
1!
11
19
1:
1@
0G
0?
1A
14
1#
#220000
0!
01
09
0:
#225000
1!
11
19
1:
0@
1B
0H
1G
1;
0A
15
04
1$
0#
#230000
0!
01
09
0:
#235000
1!
11
19
1:
1>
0B
1H
0E
0;
1C
05
16
1%
0$
#240000
0!
01
09
0:
#245000
1!
11
19
1:
0>
1D
0F
1E
0C
17
06
1&
0%
#250000
0!
01
09
0:
#255000
1!
11
19
1:
0D
1F
1?
07
0&
#260000
0!
01
09
0:
#265000
1!
11
19
1:
1@
0G
0?
1A
14
1#
#270000
0!
01
09
0:
#275000
1!
11
19
1:
0@
1B
0H
1G
1;
0A
15
04
1$
0#
#280000
0!
01
09
0:
#285000
1!
11
19
1:
1>
0B
1H
0E
0;
1C
05
16
1%
0$
#290000
0!
01
09
0:
#295000
1!
11
19
1:
0>
1D
0F
1E
0C
17
06
1&
0%
#300000
0!
01
09
0:
#305000
1!
11
19
1:
0D
1F
1?
07
0&
#310000
0!
01
09
0:
#315000
1!
11
19
1:
1@
0G
0?
1A
14
1#
#320000
0!
01
09
0:
#325000
1!
11
19
1:
0@
1B
0H
1G
1;
0A
15
04
1$
0#
#330000
0!
01
09
0:
#335000
1!
11
19
1:
1>
0B
1H
0E
0;
1C
05
16
1%
0$
#340000
0!
01
09
0:
#345000
1!
11
19
1:
0>
1D
0F
1E
0C
17
06
1&
0%
#350000
0!
01
09
0:
#355000
1!
11
19
1:
0D
1F
1?
07
0&
#360000
0!
01
09
0:
#365000
1!
11
19
1:
1@
0G
0?
1A
14
1#
#370000
0!
01
09
0:
#375000
1!
11
19
1:
0@
1B
0H
1G
1;
0A
15
04
1$
0#
#380000
0!
01
09
0:
#385000
1!
11
19
1:
1>
0B
1H
0E
0;
1C
05
16
1%
0$
#390000
0!
01
09
0:
#395000
1!
11
19
1:
0>
1D
0F
1E
0C
17
06
1&
0%
#400000
0!
01
09
0:
#405000
1!
11
19
1:
0D
1F
1?
07
0&
#410000
0!
01
09
0:
#415000
1!
11
19
1:
1@
0G
0?
1A
14
1#
#420000
0!
01
09
0:
#425000
1!
11
19
1:
0@
1B
0H
1G
1;
0A
15
04
1$
0#
#430000
0!
01
09
0:
#435000
1!
11
19
1:
1>
0B
1H
0E
0;
1C
05
16
1%
0$
#440000
0!
01
09
0:
#445000
1!
11
19
1:
0>
1D
0F
1E
0C
17
06
1&
0%
#450000
0!
01
09
0:
#455000
1!
11
19
1:
0D
1F
1?
07
0&
#460000
0!
01
09
0:
#465000
1!
11
19
1:
1@
0G
0?
1A
14
1#
#470000
0!
01
09
0:
#475000
1!
11
19
1:
0@
1B
0H
1G
1;
0A
15
04
1$
0#
#480000
0!
01
09
0:
#485000
1!
11
19
1:
1>
0B
1H
0E
0;
1C
05
16
1%
0$
#490000
0!
01
09
0:
#495000
1!
11
19
1:
0>
1D
0F
1E
0C
17
06
1&
0%
#500000
0!
01
09
0:
#505000
1!
11
19
1:
0D
1F
1?
07
0&
#510000
0!
01
09
0:
#515000
1!
11
19
1:
1@
0G
0?
1A
14
1#
#520000
0!
01
09
0:
#525000
1!
11
19
1:
0@
1B
0H
1G
1;
0A
15
04
1$
0#
#530000
0!
01
09
0:
#535000
1!
11
19
1:
1>
0B
1H
0E
0;
1C
05
16
1%
0$
#540000
0!
01
09
0:
#545000
1!
11
19
1:
0>
1D
0F
1E
0C
17
06
1&
0%
#550000
0!
01
09
0:
#555000
1!
11
19
1:
0D
1F
1?
07
0&
#560000
0!
01
09
0:
#565000
1!
11
19
1:
1@
0G
0?
1A
14
1#
#570000
0!
01
09
0:
#575000
1!
11
19
1:
0@
1B
0H
1G
1;
0A
15
04
1$
0#
#580000
0!
01
09
0:
#585000
1!
11
19
1:
1>
0B
1H
0E
0;
1C
05
16
1%
0$
#590000
0!
01
09
0:
#595000
1!
11
19
1:
0>
1D
0F
1E
0C
17
06
1&
0%
#600000
0!
01
09
0:
#605000
1!
11
19
1:
0D
1F
1?
07
0&
#610000
0!
01
09
0:
#615000
1!
11
19
1:
1@
0G
0?
1A
14
1#
#620000
0!
01
09
0:
#625000
1!
11
19
1:
0@
1B
0H
1G
1;
0A
15
04
1$
0#
#630000
0!
01
09
0:
#635000
1!
11
19
1:
1>
0B
1H
0E
0;
1C
05
16
1%
0$
#640000
0!
01
09
0:
#645000
1!
11
19
1:
0>
1D
0F
1E
0C
17
06
1&
0%
#650000
0!
01
09
0:
#655000
1!
11
19
1:
0D
1F
1?
07
0&
#660000
0!
01
09
0:
#665000
1!
11
19
1:
1@
0G
0?
1A
14
1#
#670000
0!
01
09
0:
#675000
1!
11
19
1:
0@
1B
0H
1G
1;
0A
15
04
1$
0#
#680000
0!
01
09
0:
#685000
1!
11
19
1:
1>
0B
1H
0E
0;
1C
05
16
1%
0$
#690000
0!
01
09
0:
#695000
1!
11
19
1:
0>
1D
0F
1E
0C
17
06
1&
0%
#700000
0!
01
09
0:
#705000
1!
11
19
1:
0D
1F
1?
07
0&
#710000
0!
01
09
0:
#715000
1!
11
19
1:
1@
0G
0?
1A
14
1#
#720000
0!
01
09
0:
#725000
1!
11
19
1:
0@
1B
0H
1G
1;
0A
15
04
1$
0#
#730000
0!
01
09
0:
#735000
1!
11
19
1:
1>
0B
1H
0E
0;
1C
05
16
1%
0$
#740000
0!
01
09
0:
#745000
1!
11
19
1:
0>
1D
0F
1E
0C
17
06
1&
0%
#750000
0!
01
09
0:
#755000
1!
11
19
1:
0D
1F
1?
07
0&
#760000
0!
01
09
0:
#765000
1!
11
19
1:
1@
0G
0?
1A
14
1#
#770000
0!
01
09
0:
#775000
1!
11
19
1:
0@
1B
0H
1G
1;
0A
15
04
1$
0#
#780000
0!
01
09
0:
#785000
1!
11
19
1:
1>
0B
1H
0E
0;
1C
05
16
1%
0$
#790000
0!
01
09
0:
#795000
1!
11
19
1:
0>
1D
0F
1E
0C
17
06
1&
0%
#800000
0!
01
09
0:
#805000
1!
11
19
1:
0D
1F
1?
07
0&
#810000
0!
01
09
0:
#815000
1!
11
19
1:
1@
0G
0?
1A
14
1#
#820000
0!
01
09
0:
#825000
1!
11
19
1:
0@
1B
0H
1G
1;
0A
15
04
1$
0#
#830000
0!
01
09
0:
#835000
1!
11
19
1:
1>
0B
1H
0E
0;
1C
05
16
1%
0$
#840000
0!
01
09
0:
#845000
1!
11
19
1:
0>
1D
0F
1E
0C
17
06
1&
0%
#850000
0!
01
09
0:
#855000
1!
11
19
1:
0D
1F
1?
07
0&
#860000
0!
01
09
0:
#865000
1!
11
19
1:
1@
0G
0?
1A
14
1#
#870000
0!
01
09
0:
#875000
1!
11
19
1:
0@
1B
0H
1G
1;
0A
15
04
1$
0#
#880000
0!
01
09
0:
#885000
1!
11
19
1:
1>
0B
1H
0E
0;
1C
05
16
1%
0$
#890000
0!
01
09
0:
#895000
1!
11
19
1:
0>
1D
0F
1E
0C
17
06
1&
0%
#900000
0!
01
09
0:
#905000
1!
11
19
1:
0D
1F
1?
07
0&
#910000
0!
01
09
0:
#915000
1!
11
19
1:
1@
0G
0?
1A
14
1#
#920000
0!
01
09
0:
#925000
1!
11
19
1:
0@
1B
0H
1G
1;
0A
15
04
1$
0#
#930000
0!
01
09
0:
#935000
1!
11
19
1:
1>
0B
1H
0E
0;
1C
05
16
1%
0$
#940000
0!
01
09
0:
#945000
1!
11
19
1:
0>
1D
0F
1E
0C
17
06
1&
0%
#950000
0!
01
09
0:
#955000
1!
11
19
1:
0D
1F
1?
07
0&
#960000
0!
01
09
0:
#965000
1!
11
19
1:
1@
0G
0?
1A
14
1#
#970000
0!
01
09
0:
#975000
1!
11
19
1:
0@
1B
0H
1G
1;
0A
15
04
1$
0#
#980000
0!
01
09
0:
#985000
1!
11
19
1:
1>
0B
1H
0E
0;
1C
05
16
1%
0$
#990000
0!
01
09
0:
#995000
1!
11
19
1:
0>
1D
0F
1E
0C
17
06
1&
0%
