simulation/qsim/DisenoModular.msim.vcd
$comment
	File created using the following command:
		vcd file DisenoModular.msim.vcd -direction
$end
$date
	Tue Apr 06 15:02:07 2021
$end
$version
	ModelSim Version 10.5b
$end
$timescale
	1ps
$end

$scope module disenomodular_vhd_vec_tst $end
$var wire 1 ! A [3] $end
$var wire 1 " A [2] $end
$var wire 1 # A [1] $end
$var wire 1 $ A [0] $end
$var wire 1 % R [3] $end
$var wire 1 & R [2] $end
$var wire 1 ' R [1] $end
$var wire 1 ( R [0] $end
$var wire 1 ) TBCD $end
$var wire 1 * TC $end

$scope module i1 $end
$var wire 1 + gnd $end
$var wire 1 , vcc $end
$var wire 1 - unknown $end
$var wire 1 . devoe $end
$var wire 1 / devclrn $end
$var wire 1 0 devpor $end
$var wire 1 1 ww_devoe $end
$var wire 1 2 ww_devclrn $end
$var wire 1 3 ww_devpor $end
$var wire 1 4 ww_R [3] $end
$var wire 1 5 ww_R [2] $end
$var wire 1 6 ww_R [1] $end
$var wire 1 7 ww_R [0] $end
$var wire 1 8 ww_A [3] $end
$var wire 1 9 ww_A [2] $end
$var wire 1 : ww_A [1] $end
$var wire 1 ; ww_A [0] $end
$var wire 1 < ww_TC $end
$var wire 1 = ww_TBCD $end
$var wire 1 > \~QUARTUS_CREATED_GND~I_combout\ $end
$var wire 1 ? \A[0]~input_o\ $end
$var wire 1 @ \A[2]~input_o\ $end
$var wire 1 A \A[3]~input_o\ $end
$var wire 1 B \A[1]~input_o\ $end
$var wire 1 C \TBCD~input_o\ $end
$var wire 1 D \TC~input_o\ $end
$var wire 1 E \inst|Q[3]~0_combout\ $end
$var wire 1 F \inst|Q[2]~1_combout\ $end
$var wire 1 G \inst|Q[1]~2_combout\ $end
$var wire 1 H \inst|Q[0]~3_combout\ $end
$var wire 1 I \ALT_INV_TBCD~input_o\ $end
$var wire 1 J \ALT_INV_TC~input_o\ $end
$var wire 1 K \ALT_INV_A[0]~input_o\ $end
$var wire 1 L \ALT_INV_A[1]~input_o\ $end
$var wire 1 M \ALT_INV_A[3]~input_o\ $end
$var wire 1 N \ALT_INV_A[2]~input_o\ $end
$upscope $end
$upscope $end
$enddefinitions $end
#0
$dumpvars
0)
1*
0+
1,
x-
1.
1/
10
11
12
13
1<
0=
x>
0?
0@
1A
0B
0C
1D
1E
1F
0G
0H
1I
0J
1K
1L
0M
1N
1!
0"
0#
0$
14
15
06
07
18
09
0:
0;
1%
1&
0'
0(
$end
#10000
1#
1:
1B
0L
0E
0F
05
04
0&
0%
#20000
0#
0!
1"
1)
0:
19
08
1=
1C
0A
1@
0B
1L
0N
1M
0I
1F
1G
16
15
1'
1&
#30000
1!
0"
0)
0*
09
18
0=
0<
0D
0C
1A
0@
1N
0M
1I
1J
1E
0F
1H
17
05
14
1(
0&
1%
#40000
0!
1"
19
08
0A
1@
0N
1M
0E
1F
15
04
1&
0%
#50000
0"
1)
1*
09
1=
1<
1D
1C
0@
1N
0I
0J
0F
0G
0H
07
06
05
0(
0'
0&
#60000
0)
1!
1#
0=
1:
18
1A
1B
0C
1I
0L
0M
#70000
1)
0#
1"
1=
0:
19
1@
0B
1C
0I
1L
0N
#80000
0)
0!
0*
1$
0=
1;
08
0<
0D
0A
1?
0C
1I
0K
1M
1J
1E
14
1%
#90000
1!
1*
0"
09
18
1<
1D
1A
0@
1N
0M
0J
1F
1H
17
15
1(
1&
#100000
0*
0<
0D
1J
0H
07
0(
#110000
1*
0!
1)
1#
1<
1:
08
1=
1C
0A
1B
1D
0J
0L
1M
0I
0E
0F
1G
16
05
04
1'
0&
0%
#120000
0*
1!
0)
1"
0$
0<
0;
19
18
0=
0C
1A
1@
0?
0D
1J
1K
0N
0M
1I
0G
06
0'
#130000
0!
0#
0:
08
0A
0B
1L
1M
1F
1G
1H
17
16
15
1(
1'
1&
#140000
0"
1$
1;
09
0@
1?
0K
1N
0G
0H
07
06
0(
0'
#150000
1"
0$
1!
1#
1*
0;
1:
19
18
1<
1D
1A
1@
1B
0?
1K
0L
0N
0M
0J
0F
05
0&
#170000
0"
1$
1;
09
0@
1?
0K
1N
#180000
0$
0!
0#
0*
0;
0:
08
0<
0D
0A
0B
0?
1K
1L
1M
1J
1G
1H
17
16
1(
1'
#190000
1$
1!
1*
1"
1;
19
18
1<
1D
1A
1@
1?
0K
0N
0M
0J
0G
0H
07
06
0(
0'
#200000
0$
0!
0*
1#
1)
0;
1:
08
0<
1=
1C
0D
0A
1B
0?
1K
0L
1M
1J
0I
1F
1G
16
15
1'
1&
#210000
1!
0)
18
0=
0C
1A
0M
1I
0F
0G
06
05
0'
0&
#220000
1$
1;
1?
0K
#230000
0!
08
0A
1M
1E
1G
16
14
1'
1%
#240000
1!
0$
1)
1*
0#
0"
0;
0:
09
18
1=
1<
1D
1C
1A
0@
0B
0?
1K
1L
1N
0M
0I
0J
1F
0G
06
15
0'
1&
#250000
0*
1#
1"
0<
1:
19
1@
1B
0D
1J
0L
0N
0E
0F
05
04
0&
0%
#260000
0#
0"
0!
0)
0:
09
08
0=
0C
0A
0@
0B
1L
1N
1M
1I
1G
1H
17
16
1(
1'
#270000
1#
1)
1$
1;
1:
1=
1C
1B
1?
0K
0L
0I
#280000
0#
0$
1!
0;
0:
18
1A
0B
0?
1K
1L
0M
1E
0G
0H
07
06
14
0(
0'
1%
#290000
1#
1$
0!
1*
1;
1:
08
1<
1D
0A
1B
1?
0K
0L
1M
0J
0E
1G
16
04
1'
0%
#300000
0$
0;
0?
1K
1H
17
1(
#310000
0#
1!
0*
0:
18
0<
0D
1A
0B
1L
0M
1J
1E
0G
0H
07
06
14
0(
0'
1%
#320000
1*
1<
1D
0J
1F
15
1&
#330000
0!
1"
19
08
0A
1@
0N
1M
0E
1G
16
04
1'
0%
#340000
1!
0"
0*
1#
1$
0)
1;
1:
09
18
0<
0=
0C
0D
1A
0@
1B
1?
0K
0L
1N
0M
1J
1I
0F
0G
06
05
0'
0&
#350000
0!
1*
0#
1)
0:
08
1<
1=
1C
1D
0A
0B
1L
1M
0J
0I
1H
17
1(
#360000
0*
1#
0)
0<
1:
0=
0C
1B
0D
1J
0L
1I
1F
1G
0H
07
16
15
0(
1'
1&
#370000
0#
1)
1"
0$
0;
0:
19
1=
1C
1@
0B
0?
1K
1L
0N
0I
0G
06
0'
#380000
1#
0"
1*
1!
1:
09
18
1<
1D
1A
0@
1B
0L
1N
0M
0J
0F
05
0&
#390000
1"
0!
1$
1;
19
08
0A
1@
1?
0K
0N
1M
1F
15
1&
#400000
1!
0#
0*
0:
18
0<
0D
1A
0B
1L
0M
1J
0F
05
0&
#410000
1#
1*
0"
0$
0;
1:
09
1<
1D
0@
1B
0?
1K
0L
1N
0J
#420000
0#
1"
1$
0!
1;
0:
19
08
0A
1@
0B
1?
0K
1L
0N
1M
1F
1G
1H
17
16
15
1(
1'
1&
#430000
1#
0"
0$
1!
0)
0;
1:
09
18
0=
0C
1A
0@
1B
0?
1K
0L
1N
0M
1I
0F
0G
0H
07
06
05
0(
0'
0&
#440000
1"
1)
0*
19
1=
0<
0D
1C
1@
0N
0I
1J
#450000
0#
1$
1;
0:
0B
1?
0K
1L
#460000
0$
0"
1*
0!
0;
09
08
1<
1D
0A
0@
0?
1K
1N
1M
0J
#470000
1"
0*
1#
0)
1:
19
0<
0=
0C
0D
1@
1B
0L
0N
1J
1I
1E
1H
17
14
1(
1%
#480000
0"
1)
09
1=
1C
0@
1N
0I
0E
1G
0H
07
16
04
0(
1'
0%
#490000
1"
0)
1*
1$
1!
1;
19
18
0=
1<
1D
0C
1A
1@
1?
0K
0N
0M
1I
0J
0G
06
0'
#500000
0"
09
0@
1N
#510000
0*
0$
0!
0<
0;
08
0A
0?
0D
1J
1K
1M
1F
1H
17
15
1(
1&
#520000
1*
1"
0#
1<
0:
19
1@
0B
1D
0J
1L
0N
1G
0H
07
16
0(
1'
#530000
0"
1#
1!
1)
1:
09
18
1=
1C
1A
0@
1B
0L
1N
0M
0I
0F
0G
06
05
0'
0&
#550000
0*
1$
0<
1;
1?
0D
1J
0K
#560000
0#
0!
0:
08
0A
0B
1L
1M
1H
17
1(
#570000
1"
19
1@
0N
1F
15
1&
#580000
0"
0$
0)
0;
09
0=
0C
0@
0?
1K
1N
1I
0F
1G
16
05
1'
0&
#590000
1)
1=
1C
0I
0G
0H
07
06
0(
0'
#600000
1"
1$
1!
1;
19
18
1A
1@
1?
0K
0N
0M
#610000
0"
0)
09
0=
0C
0@
1N
1I
1E
1F
15
14
1&
1%
#620000
1"
1)
0!
19
08
1=
1C
0A
1@
0N
1M
0I
0E
1H
17
04
1(
0%
#630000
0"
1!
1#
1*
1:
09
18
1<
1D
1A
0@
1B
0L
1N
0M
0J
0F
0H
07
05
0(
0&
#640000
0!
0#
0:
08
0A
0B
1L
1M
1H
17
1(
#650000
1#
1"
0*
0$
0;
1:
19
0<
0D
1@
1B
0?
1K
0L
0N
1J
1F
1G
0H
07
16
15
0(
1'
1&
#660000
1$
1;
1?
0K
1H
17
1(
#670000
0#
0"
0)
0:
09
0=
0C
0@
0B
1L
1N
1I
0G
0H
07
06
0(
0'
#680000
1)
0$
1!
1=
0;
18
1A
0?
1C
0I
1K
0M
1E
0F
05
14
0&
1%
#690000
0)
1$
1"
0=
1;
19
1@
1?
0C
1I
0K
0N
0E
04
0%
#700000
1)
0$
0"
0!
1=
0;
09
08
0A
0@
0?
1C
0I
1K
1N
1M
#710000
1$
1"
1#
1;
1:
19
1@
1B
1?
0K
0L
0N
1F
1G
1H
17
16
15
1(
1'
1&
#720000
0)
1!
1*
0=
18
1<
1D
1A
0C
1I
0M
0J
0F
0G
0H
07
06
05
0(
0'
0&
#730000
0!
0*
0"
09
08
0<
0D
0A
0@
1N
1M
1J
1F
1G
16
15
1'
1&
#740000
1!
1"
1)
0#
0:
19
18
1=
1C
1A
1@
0B
1L
0N
0M
0I
0F
0G
06
05
0'
0&
#750000
0"
1#
1*
0$
0;
1:
09
1<
1D
0@
1B
0?
1K
0L
1N
0J
#760000
0#
0!
0:
08
0A
0B
1L
1M
#770000
1#
1$
1;
1:
1B
1?
0K
0L
1G
16
1'
#780000
0#
0)
0:
0=
0C
0B
1L
1I
0G
1H
17
06
1(
0'
#790000
1#
1)
0$
0*
0;
1:
1=
0<
0D
1C
1B
0?
1K
0L
0I
1J
1G
0H
07
16
0(
1'
#800000
1$
1!
1"
1;
19
18
1A
1@
1?
0K
0N
0M
0G
06
0'
#810000
0!
0"
0#
0)
0:
09
08
0=
0C
0A
0@
0B
1L
1N
1M
1I
1F
15
1&
#820000
1!
1*
18
1<
1D
1A
0M
0J
1E
1H
17
14
1(
1%
#830000
0!
0*
1#
0$
0;
1:
08
0<
0D
0A
1B
0?
1K
0L
1M
1J
0E
04
0%
#840000
1*
0#
1$
1<
1;
0:
0B
1?
1D
0J
0K
1L
0F
05
0&
#850000
1#
1)
1:
1=
1C
1B
0L
0I
1G
0H
07
16
0(
1'
#860000
0#
0$
1"
0;
0:
19
1@
0B
0?
1K
1L
0N
1F
15
1&
#870000
1$
0)
0*
1;
0=
0<
0D
0C
1?
0K
1I
1J
1E
0F
0G
06
05
14
0'
0&
1%
#880000
0$
1)
1*
1#
0"
1!
0;
1:
09
18
1=
1<
1D
1C
1A
0@
1B
0?
1K
0L
1N
0M
0I
0J
0E
04
0%
#890000
0)
0#
0=
0:
0B
0C
1I
1L
1E
1F
15
14
1&
1%
#900000
1)
1#
1$
0*
1"
1=
1;
1:
19
0<
0D
1@
1B
1?
1C
0I
0K
0L
0N
1J
0E
0F
05
04
0&
0%
#910000
0$
1*
0"
0;
09
1<
1D
0@
0?
1K
1N
0J
#920000
0#
0!
0:
08
0A
0B
1L
1M
#930000
1$
1"
0)
1;
19
0=
0C
1@
1?
0K
0N
1I
1F
1G
1H
17
16
15
1(
1'
1&
#940000
0$
1)
1#
0;
1:
1=
1C
1B
0?
1K
0L
0I
0G
06
0'
#950000
1$
0#
1;
0:
0B
1?
0K
1L
1G
16
1'
#960000
0$
1#
0;
1:
1B
0?
1K
0L
0G
06
0'
#970000
0#
0:
0B
1L
1G
0H
07
16
0(
1'
#980000
0"
1!
0*
09
18
0<
0D
1A
0@
1N
0M
1J
1E
0F
0G
06
05
14
0'
0&
1%
#990000
1"
0!
0)
19
08
0=
0C
0A
1@
0N
1M
1I
0E
1F
1G
1H
17
16
15
04
1(
1'
1&
0%
