simulation/qsim/mss.msim.vcd
$comment
	File created using the following command:
		vcd file mss.msim.vcd -direction
$end
$date
	Fri Apr 16 10:52:37 2021
$end
$version
	ModelSim Version 10.5b
$end
$timescale
	1ps
$end

$scope module block1_vhd_vec_tst $end
$var wire 1 ! clk $end
$var wire 1 " Digito [3] $end
$var wire 1 # Digito [2] $end
$var wire 1 $ Digito [1] $end
$var wire 1 % Digito [0] $end
$var wire 1 & enter $end
$var wire 1 ' est [3] $end
$var wire 1 ( est [2] $end
$var wire 1 ) est [1] $end
$var wire 1 * est [0] $end
$var wire 1 + fin $end
$var wire 1 , Q0 [3] $end
$var wire 1 - Q0 [2] $end
$var wire 1 . Q0 [1] $end
$var wire 1 / Q0 [0] $end
$var wire 1 0 Q1 [3] $end
$var wire 1 1 Q1 [2] $end
$var wire 1 2 Q1 [1] $end
$var wire 1 3 Q1 [0] $end
$var wire 1 4 Q2 [3] $end
$var wire 1 5 Q2 [2] $end
$var wire 1 6 Q2 [1] $end
$var wire 1 7 Q2 [0] $end
$var wire 1 8 resetn $end
$var wire 1 9 start $end

$scope module i1 $end
$var wire 1 : gnd $end
$var wire 1 ; vcc $end
$var wire 1 < unknown $end
$var wire 1 = devoe $end
$var wire 1 > devclrn $end
$var wire 1 ? devpor $end
$var wire 1 @ ww_devoe $end
$var wire 1 A ww_devclrn $end
$var wire 1 B ww_devpor $end
$var wire 1 C ww_fin $end
$var wire 1 D ww_resetn $end
$var wire 1 E ww_clk $end
$var wire 1 F ww_start $end
$var wire 1 G ww_enter $end
$var wire 1 H ww_est [3] $end
$var wire 1 I ww_est [2] $end
$var wire 1 J ww_est [1] $end
$var wire 1 K ww_est [0] $end
$var wire 1 L ww_Q0 [3] $end
$var wire 1 M ww_Q0 [2] $end
$var wire 1 N ww_Q0 [1] $end
$var wire 1 O ww_Q0 [0] $end
$var wire 1 P ww_Digito [3] $end
$var wire 1 Q ww_Digito [2] $end
$var wire 1 R ww_Digito [1] $end
$var wire 1 S ww_Digito [0] $end
$var wire 1 T ww_Q1 [3] $end
$var wire 1 U ww_Q1 [2] $end
$var wire 1 V ww_Q1 [1] $end
$var wire 1 W ww_Q1 [0] $end
$var wire 1 X ww_Q2 [3] $end
$var wire 1 Y ww_Q2 [2] $end
$var wire 1 Z ww_Q2 [1] $end
$var wire 1 [ ww_Q2 [0] $end
$var wire 1 \ \~QUARTUS_CREATED_GND~I_combout\ $end
$var wire 1 ] \clk~input_o\ $end
$var wire 1 ^ \clk~inputCLKENA0_outclk\ $end
$var wire 1 _ \start~input_o\ $end
$var wire 1 ` \enter~input_o\ $end
$var wire 1 a \inst10|Selector0~0_combout\ $end
$var wire 1 b \resetn~input_o\ $end
$var wire 1 c \inst10|y.s0~q\ $end
$var wire 1 d \inst10|y~24_combout\ $end
$var wire 1 e \inst10|y.s1~q\ $end
$var wire 1 f \inst10|Selector1~0_combout\ $end
$var wire 1 g \inst10|y.s2~q\ $end
$var wire 1 h \inst10|y~23_combout\ $end
$var wire 1 i \inst10|y.s3~q\ $end
$var wire 1 j \inst10|y~20_combout\ $end
$var wire 1 k \inst10|y.s4~q\ $end
$var wire 1 l \inst10|Selector2~0_combout\ $end
$var wire 1 m \inst10|y.s5~q\ $end
$var wire 1 n \inst10|y~22_combout\ $end
$var wire 1 o \inst10|y.s6~q\ $end
$var wire 1 p \inst10|y~21_combout\ $end
$var wire 1 q \inst10|y.s7~q\ $end
$var wire 1 r \inst10|Selector3~0_combout\ $end
$var wire 1 s \inst10|y.s8~q\ $end
$var wire 1 t \inst10|y~19_combout\ $end
$var wire 1 u \inst10|y.s9~q\ $end
$var wire 1 v \inst10|y~18_combout\ $end
$var wire 1 w \inst10|y.s10~q\ $end
$var wire 1 x \inst10|Selector4~0_combout\ $end
$var wire 1 y \inst10|y.s11~q\ $end
$var wire 1 z \inst10|y~17_combout\ $end
$var wire 1 { \inst10|y.s12~q\ $end
$var wire 1 | \inst10|WideOr5~0_combout\ $end
$var wire 1 } \inst10|WideOr5~combout\ $end
$var wire 1 ~ \inst10|WideOr6~combout\ $end
$var wire 1 !! \inst10|WideOr7~combout\ $end
$var wire 1 "! \inst10|WideOr8~combout\ $end
$var wire 1 #! \Digito[3]~input_o\ $end
$var wire 1 $! \inst|q[3]~feeder_combout\ $end
$var wire 1 %! \Digito[2]~input_o\ $end
$var wire 1 &! \Digito[1]~input_o\ $end
$var wire 1 '! \Digito[0]~input_o\ $end
$var wire 1 (! \inst2|q[0]~feeder_combout\ $end
$var wire 1 )! \inst3|q[3]~feeder_combout\ $end
$var wire 1 *! \inst3|q[0]~feeder_combout\ $end
$var wire 1 +! \inst|q\ [3] $end
$var wire 1 ,! \inst|q\ [2] $end
$var wire 1 -! \inst|q\ [1] $end
$var wire 1 .! \inst|q\ [0] $end
$var wire 1 /! \inst2|q\ [3] $end
$var wire 1 0! \inst2|q\ [2] $end
$var wire 1 1! \inst2|q\ [1] $end
$var wire 1 2! \inst2|q\ [0] $end
$var wire 1 3! \inst3|q\ [3] $end
$var wire 1 4! \inst3|q\ [2] $end
$var wire 1 5! \inst3|q\ [1] $end
$var wire 1 6! \inst3|q\ [0] $end
$var wire 1 7! \ALT_INV_Digito[0]~input_o\ $end
$var wire 1 8! \ALT_INV_Digito[3]~input_o\ $end
$var wire 1 9! \ALT_INV_enter~input_o\ $end
$var wire 1 :! \ALT_INV_start~input_o\ $end
$var wire 1 ;! \inst10|ALT_INV_y.s0~q\ $end
$var wire 1 <! \inst10|ALT_INV_y.s1~q\ $end
$var wire 1 =! \inst10|ALT_INV_y.s3~q\ $end
$var wire 1 >! \inst10|ALT_INV_y.s2~q\ $end
$var wire 1 ?! \inst10|ALT_INV_y.s6~q\ $end
$var wire 1 @! \inst10|ALT_INV_y.s5~q\ $end
$var wire 1 A! \inst10|ALT_INV_y.s7~q\ $end
$var wire 1 B! \inst10|ALT_INV_y.s4~q\ $end
$var wire 1 C! \inst10|ALT_INV_y.s9~q\ $end
$var wire 1 D! \inst10|ALT_INV_y.s8~q\ $end
$var wire 1 E! \inst10|ALT_INV_y.s10~q\ $end
$var wire 1 F! \inst10|ALT_INV_WideOr5~0_combout\ $end
$var wire 1 G! \inst10|ALT_INV_y.s12~q\ $end
$var wire 1 H! \inst10|ALT_INV_y.s11~q\ $end
$upscope $end
$upscope $end
$enddefinitions $end
#0
$dumpvars
1!
0&
0+
08
09
0:
1;
x<
1=
1>
1?
1@
1A
1B
0C
0D
1E
0F
0G
x\
1]
1^
0_
0`
0a
0b
0c
0d
0e
0f
0g
0h
0i
0j
0k
0l
0m
0n
0o
0p
0q
0r
0s
0t
0u
0v
0w
0x
0y
0z
0{
1|
0}
0~
0!!
0"!
0#!
0$!
1%!
0&!
1'!
1(!
0)!
1*!
07!
18!
19!
1:!
1;!
1<!
1=!
1>!
1?!
1@!
1A!
1B!
1C!
1D!
1E!
0F!
1G!
1H!
0"
1#
0$
1%
0H
0I
0J
0K
0L
0M
0N
0O
0P
1Q
0R
1S
0T
0U
0V
0W
0X
0Y
0Z
0[
0+!
0,!
0-!
0.!
0/!
00!
01!
02!
03!
04!
05!
06!
0'
0(
0)
0*
0,
0-
0.
0/
00
01
02
03
04
05
06
07
$end
#5000
0!
0E
0]
0^
#10000
1!
1E
1]
1^
#15000
0!
0#
0E
0Q
0%!
0]
0^
#20000
1!
1E
1]
1^
#25000
0!
0E
0]
0^
#30000
1!
1#
1"
1E
1Q
1P
1#!
1%!
1]
1^
08!
1$!
1)!
#35000
0!
0E
0]
0^
#40000
1!
1E
1]
1^
#45000
0!
0#
0"
1$
0%
0E
0S
1R
0Q
0P
0#!
0%!
1&!
0'!
0]
0^
17!
18!
0$!
0)!
0(!
0*!
#50000
1!
1E
1]
1^
#55000
0!
0E
0]
0^
#60000
1!
0$
18
1E
0R
1D
1b
0&!
1]
1^
#65000
0!
0E
0]
0^
#70000
1!
19
1E
1F
1_
1]
1^
0:!
1a
1d
#75000
0!
1"
0E
1P
1#!
0]
0^
08!
1$!
1)!
#80000
1!
1E
1]
1^
1c
1e
0<!
0;!
1"!
1K
1*
#85000
0!
0E
0]
0^
#90000
1!
1$
1%
1E
1S
1R
1&!
1'!
1]
1^
07!
1(!
1*!
#95000
0!
0E
0]
0^
#100000
1!
09
1E
0F
0_
1]
1^
1:!
0d
1f
#105000
0!
0E
0]
0^
#110000
1!
1E
1]
1^
0e
1g
0>!
1<!
0"!
1!!
1J
0K
0*
1)
#115000
0!
0E
0]
0^
#120000
1!
0"
1#
1&
1E
1Q
0P
1G
1`
0#!
1%!
1]
1^
18!
09!
0f
1h
0$!
0)!
#125000
0!
0E
0]
0^
#130000
1!
1E
1]
1^
0g
1i
0=!
1>!
1"!
1K
1*
#135000
0!
0#
0$
0E
0R
0Q
0%!
0&!
0]
0^
#140000
1!
0&
1E
0G
0`
1]
1^
19!
0h
1j
#145000
0!
0E
0]
0^
#150000
1!
1#
1"
0%
1E
0S
1Q
1P
1#!
1%!
0'!
1]
1^
17!
08!
1$!
1)!
0(!
0*!
0i
1k
0B!
1=!
0j
0!!
0"!
1l
1~
1I
0K
0J
0*
0)
1(
#155000
0!
0E
0]
0^
#160000
1!
1E
1]
1^
0k
1m
1+!
1,!
0@!
1B!
1"!
1M
1L
1-
1,
1K
1*
#165000
0!
0"
0E
0P
0#!
0]
0^
18!
0$!
0)!
#170000
1!
1E
1]
1^
#175000
0!
0E
0]
0^
#180000
1!
1"
1&
1$
1E
1R
1P
1G
1`
1#!
1&!
1]
1^
08!
09!
0l
1n
1$!
1)!
#185000
0!
0E
0]
0^
#190000
1!
1E
1]
1^
0m
1o
0?!
1@!
0"!
1!!
1J
0K
0*
1)
#195000
0!
0#
0E
0Q
0%!
0]
0^
#200000
1!
0&
1E
0G
0`
1]
1^
19!
0n
1p
#205000
0!
0E
0]
0^
#210000
1!
0"
1E
0P
0#!
1]
1^
18!
0$!
0)!
0o
1q
0A!
1?!
0p
1r
1"!
1K
1*
#215000
0!
0E
0]
0^
#220000
1!
1&
1E
1G
1`
1]
1^
09!
0q
1s
11!
0D!
1A!
0~
0!!
0"!
0r
1t
1}
1V
12
1H
0K
0J
0I
0*
0)
0(
1'
#225000
0!
1#
0$
0E
0R
1Q
1%!
0&!
0]
0^
#230000
1!
1E
1]
1^
0s
1u
0C!
1D!
1"!
1K
1*
#235000
0!
0E
0]
0^
#240000
1!
1$
1%
1E
1S
1R
1&!
1'!
1]
1^
07!
1(!
1*!
#245000
0!
0E
0]
0^
#250000
1!
1E
1]
1^
#255000
0!
0%
1"
0E
0S
1P
1#!
0'!
0]
0^
17!
08!
1$!
1)!
0(!
0*!
#260000
1!
1E
1]
1^
#265000
0!
0E
0]
0^
#270000
1!
0"
0#
0&
1E
0Q
0P
0G
0`
0#!
0%!
1]
1^
18!
19!
0t
1v
0$!
0)!
#275000
0!
0E
0]
0^
#280000
1!
1E
1]
1^
0u
1w
0E!
1C!
0v
0"!
1x
1!!
1J
0K
0*
1)
#285000
0!
0E
0]
0^
#290000
1!
1E
1]
1^
0w
1y
15!
0H!
1E!
0|
1"!
1F!
1Z
16
1K
1C
1*
1+
#295000
0!
0E
0]
0^
#300000
1!
1"
1#
1E
1Q
1P
1#!
1%!
1]
1^
08!
1$!
1)!
#305000
0!
0E
0]
0^
#310000
1!
19
1E
1F
1_
1]
1^
0:!
0x
1z
#315000
0!
0"
0#
1%
0E
1S
0Q
0P
0#!
0%!
1'!
0]
0^
07!
18!
0$!
0)!
1(!
1*!
#320000
1!
1E
1]
1^
0y
1{
0G!
1H!
0!!
0"!
1~
1I
0K
0J
0*
0)
1(
#325000
0!
0E
0]
0^
#330000
1!
1"
1#
0%
09
1E
0S
1Q
1P
0F
0_
1#!
1%!
0'!
1]
1^
17!
08!
1:!
0a
0z
1$!
1)!
0(!
0*!
#335000
0!
0E
0]
0^
#340000
1!
19
1E
1F
1_
1]
1^
0:!
1a
1z
0c
0{
1G!
1;!
0+!
0,!
01!
05!
1d
0z
1|
0}
0~
0F!
0Z
0V
0M
0L
0I
0H
06
02
0-
0,
0C
0(
0'
0+
#345000
0!
0#
0E
0Q
0%!
0]
0^
#350000
1!
09
1E
0F
0_
1]
1^
1:!
0a
0d
1c
1e
0<!
0;!
1a
1f
1"!
1K
1*
#355000
0!
0E
0]
0^
#360000
1!
1%
1&
1E
1S
1G
1`
1'!
1]
1^
07!
09!
1(!
1*!
0e
1g
0>!
1<!
0"!
0f
1h
1!!
1J
0K
0*
1)
#365000
0!
0E
0]
0^
#370000
1!
1E
1]
1^
0g
1i
0=!
1>!
1"!
1K
1*
#375000
0!
0%
1#
0$
0E
0S
0R
1Q
1%!
0&!
0'!
0]
0^
17!
0(!
0*!
#380000
1!
0&
1E
0G
0`
1]
1^
19!
0h
1j
#385000
0!
0E
0]
0^
#390000
1!
1%
0#
0"
1E
1S
0Q
0P
0#!
0%!
1'!
1]
1^
07!
18!
0$!
0)!
1(!
1*!
0i
1k
0B!
1=!
0j
0!!
0"!
1l
1~
1I
0K
0J
0*
0)
1(
#395000
0!
0E
0]
0^
#400000
1!
1&
1E
1G
1`
1]
1^
09!
0k
1m
1.!
0@!
1B!
0l
1n
1"!
1O
1/
1K
1*
#405000
0!
1#
1"
1$
0E
1R
1Q
1P
1#!
1%!
1&!
0]
0^
08!
1$!
1)!
#410000
1!
1E
1]
1^
0m
1o
0?!
1@!
0"!
1!!
1J
0K
0*
1)
#415000
0!
0E
0]
0^
#420000
1!
0#
0"
0$
0&
0%
1E
0S
0R
0Q
0P
0G
0`
0#!
0%!
0&!
0'!
1]
1^
17!
18!
19!
0n
1p
0$!
0)!
0(!
0*!
#425000
0!
0E
0]
0^
#430000
1!
1E
1]
1^
0o
1q
0A!
1?!
0p
1r
1"!
1K
1*
#435000
0!
1"
1%
0E
1S
1P
1#!
1'!
0]
0^
07!
08!
1$!
1)!
1(!
1*!
#440000
1!
1&
1E
1G
1`
1]
1^
09!
0q
1s
1/!
12!
0D!
1A!
0~
0!!
0"!
0r
1t
1}
1W
1T
13
10
1H
0K
0J
0I
0*
0)
0(
1'
#445000
0!
0E
0]
0^
#450000
1!
0"
1$
1E
1R
0P
0#!
1&!
1]
1^
18!
0$!
0)!
0s
1u
0C!
1D!
1"!
1K
1*
#455000
0!
0E
0]
0^
#460000
1!
0&
1E
0G
0`
1]
1^
19!
0t
1v
#465000
0!
0E
0]
0^
#470000
1!
1E
1]
1^
0u
1w
0E!
1C!
0v
0"!
1x
1!!
1J
0K
0*
1)
#475000
0!
0E
0]
0^
#480000
1!
1"
1E
1P
1#!
1]
1^
08!
1$!
1)!
0w
1y
15!
16!
0H!
1E!
0|
1"!
1F!
1[
1Z
17
16
1K
1C
1*
1+
#485000
0!
0E
0]
0^
#490000
1!
19
1E
1F
1_
1]
1^
0:!
0x
1z
#495000
0!
1#
0E
1Q
1%!
0]
0^
#500000
1!
1E
1]
1^
0y
1{
0G!
1H!
0!!
0"!
1~
1I
0K
0J
0*
0)
1(
#505000
0!
0E
0]
0^
#510000
1!
0#
0"
1E
0Q
0P
0#!
0%!
1]
1^
18!
0$!
0)!
#515000
0!
0E
0]
0^
#520000
1!
09
1E
0F
0_
1]
1^
1:!
0a
0z
#525000
0!
1"
0E
1P
1#!
0]
0^
08!
1$!
1)!
#530000
1!
1E
1]
1^
0c
0{
1G!
1;!
0.!
0/!
02!
05!
06!
1|
0}
0~
0F!
0[
0Z
0W
0T
0O
0I
0H
07
06
03
00
0/
0C
0(
0'
0+
#535000
0!
0E
0]
0^
#540000
1!
1#
0%
1E
0S
1Q
1%!
0'!
1]
1^
17!
0(!
0*!
#545000
0!
0E
0]
0^
#550000
1!
1E
1]
1^
#555000
0!
0"
0E
0P
0#!
0]
0^
18!
0$!
0)!
#560000
1!
1E
1]
1^
#565000
0!
0E
0]
0^
#570000
1!
0#
0$
1E
0R
0Q
0%!
0&!
1]
1^
#575000
0!
0E
0]
0^
#580000
1!
1E
1]
1^
#585000
0!
1"
1%
0E
1S
1P
1#!
1'!
0]
0^
07!
08!
1$!
1)!
1(!
1*!
#590000
1!
1E
1]
1^
#595000
0!
0E
0]
0^
#600000
1!
1E
1]
1^
#605000
0!
0E
0]
0^
#610000
1!
1E
1]
1^
#615000
0!
1#
0E
1Q
1%!
0]
0^
#620000
1!
1E
1]
1^
#625000
0!
0E
0]
0^
#630000
1!
0%
1E
0S
0'!
1]
1^
17!
0(!
0*!
#635000
0!
0E
0]
0^
#640000
1!
1E
1]
1^
#645000
0!
1%
0#
0E
1S
0Q
0%!
1'!
0]
0^
07!
1(!
1*!
#650000
1!
1E
1]
1^
#655000
0!
0E
0]
0^
#660000
1!
1#
0"
1$
1E
1R
1Q
0P
0#!
1%!
1&!
1]
1^
18!
0$!
0)!
#665000
0!
0E
0]
0^
#670000
1!
1E
1]
1^
#675000
0!
0%
0E
0S
0'!
0]
0^
17!
0(!
0*!
#680000
1!
1E
1]
1^
#685000
0!
0E
0]
0^
#690000
1!
1E
1]
1^
#695000
0!
0E
0]
0^
#700000
1!
1E
1]
1^
#705000
0!
0$
0E
0R
0&!
0]
0^
#710000
1!
1E
1]
1^
#715000
0!
0E
0]
0^
#720000
1!
1$
1"
1E
1R
1P
1#!
1&!
1]
1^
08!
1$!
1)!
#725000
0!
0E
0]
0^
#730000
1!
1E
1]
1^
#735000
0!
0E
0]
0^
#740000
1!
1E
1]
1^
#745000
0!
0E
0]
0^
#750000
1!
1E
1]
1^
#755000
0!
0E
0]
0^
#760000
1!
1E
1]
1^
#765000
0!
0"
1%
0#
0E
1S
0Q
0P
0#!
0%!
1'!
0]
0^
07!
18!
0$!
0)!
1(!
1*!
#770000
1!
1E
1]
1^
#775000
0!
0E
0]
0^
#780000
1!
1"
1#
1E
1Q
1P
1#!
1%!
1]
1^
08!
1$!
1)!
#785000
0!
0E
0]
0^
#790000
1!
1E
1]
1^
#795000
0!
0"
0#
0%
0$
0E
0S
0R
0Q
0P
0#!
0%!
0&!
0'!
0]
0^
17!
18!
0$!
0)!
0(!
0*!
#800000
1!
1E
1]
1^
#805000
0!
0E
0]
0^
#810000
1!
1%
1E
1S
1'!
1]
1^
07!
1(!
1*!
#815000
0!
0E
0]
0^
#820000
1!
1E
1]
1^
#825000
0!
0%
1"
1#
0E
0S
1Q
1P
1#!
1%!
0'!
0]
0^
17!
08!
1$!
1)!
0(!
0*!
#830000
1!
1E
1]
1^
#835000
0!
0E
0]
0^
#840000
1!
1%
0"
1E
1S
0P
0#!
1'!
1]
1^
07!
18!
0$!
0)!
1(!
1*!
#845000
0!
0E
0]
0^
#850000
1!
1E
1]
1^
#855000
0!
1"
0E
1P
1#!
0]
0^
08!
1$!
1)!
#860000
1!
1E
1]
1^
#865000
0!
0E
0]
0^
#870000
1!
0"
0%
0#
1$
1E
0S
1R
0Q
0P
0#!
0%!
1&!
0'!
1]
1^
17!
18!
0$!
0)!
0(!
0*!
#875000
0!
0E
0]
0^
#880000
1!
1E
1]
1^
#885000
0!
1#
0$
0E
0R
1Q
1%!
0&!
0]
0^
#890000
1!
1E
1]
1^
#895000
0!
0E
0]
0^
#900000
1!
0#
1$
1E
1R
0Q
0%!
1&!
1]
1^
#905000
0!
0E
0]
0^
#910000
1!
1E
1]
1^
#915000
0!
1#
0$
1%
0E
1S
0R
1Q
1%!
0&!
1'!
0]
0^
07!
1(!
1*!
#920000
1!
1E
1]
1^
#925000
0!
0E
0]
0^
#930000
1!
0#
1$
1"
1E
1R
0Q
1P
1#!
0%!
1&!
1]
1^
08!
1$!
1)!
#935000
0!
0E
0]
0^
#940000
1!
1E
1]
1^
#945000
0!
1#
0$
0"
0%
0E
0S
0R
1Q
0P
0#!
1%!
0&!
0'!
0]
0^
17!
18!
0$!
0)!
0(!
0*!
#950000
1!
1E
1]
1^
#955000
0!
0E
0]
0^
#960000
1!
1E
1]
1^
#965000
0!
0E
0]
0^
#970000
1!
1E
1]
1^
#975000
0!
0#
1$
0E
1R
0Q
0%!
1&!
0]
0^
#980000
1!
1E
1]
1^
#985000
0!
0E
0]
0^
#990000
1!
1E
1]
1^
#995000
0!
0E
0]
0^
