Ejemplo2_Est/simulation/qsim/Ejemplo2_Est.msim.vcd
$comment
	File created using the following command:
		vcd file Ejemplo2_Est.msim.vcd -direction
$end
$date
	Wed Jun 16 15:56:14 2021
$end
$version
	ModelSim Version 10.5b
$end
$timescale
	1ps
$end

$scope module ejemplo_estructural_vhd_vec_tst $end
$var wire 1 ! SA [0] $end
$var wire 1 " SB [0] $end
$var wire 1 # Y [0] $end

$scope module i1 $end
$var wire 1 $ gnd $end
$var wire 1 % vcc $end
$var wire 1 & unknown $end
$var wire 1 ' devoe $end
$var wire 1 ( devclrn $end
$var wire 1 ) devpor $end
$var wire 1 * ww_devoe $end
$var wire 1 + ww_devclrn $end
$var wire 1 , ww_devpor $end
$var wire 1 - ww_SA [0] $end
$var wire 1 . ww_SB [0] $end
$var wire 1 / ww_Y [0] $end
$var wire 1 0 \~QUARTUS_CREATED_GND~I_combout\ $end
$var wire 1 1 \SB[0]~input_o\ $end
$var wire 1 2 \SA[0]~input_o\ $end
$var wire 1 3 \or1|F[0]~0_combout\ $end
$var wire 1 4 \ALT_INV_SB[0]~input_o\ $end
$var wire 1 5 \ALT_INV_SA[0]~input_o\ $end
$upscope $end
$upscope $end
$enddefinitions $end
#0
$dumpvars
0$
1%
x&
1'
1(
1)
1*
1+
1,
x0
11
12
03
04
05
1!
1"
1-
1.
0/
0#
$end
#5000
0"
0.
01
14
13
1/
1#
#10000
1"
0!
1.
0-
02
11
04
15
#15000
0"
1!
0.
1-
12
01
14
05
#20000
1"
0!
1.
0-
02
11
04
15
#25000
1!
1-
12
05
03
0/
0#
#30000
0"
0.
01
14
13
1/
1#
#35000
1"
1.
11
04
03
0/
0#
#40000
0"
0!
0.
0-
02
01
14
15
#45000
1"
1.
11
04
13
1/
1#
#50000
0"
1!
0.
1-
12
01
14
05
#60000
0!
0-
02
15
03
0/
0#
#65000
1!
1-
12
05
13
1/
1#
#70000
1"
1.
11
04
03
0/
0#
#75000
0"
0.
01
14
13
1/
1#
#80000
1"
1.
11
04
03
0/
0#
#85000
0!
0-
02
15
13
1/
1#
#95000
1!
0"
1-
0.
01
12
05
14
#100000
1"
1.
11
04
03
0/
0#
#105000
0"
0.
01
14
13
1/
1#
#125000
1"
0!
1.
0-
02
11
04
15
#130000
0"
0.
01
14
03
0/
0#
#135000
1"
1.
11
04
13
1/
1#
#140000
0"
0.
01
14
03
0/
0#
#145000
1!
1-
12
05
13
1/
1#
#150000
0!
1"
0-
1.
11
02
15
04
#155000
0"
0.
01
14
03
0/
0#
#160000
1"
1!
1.
1-
12
11
04
05
#165000
0"
0.
01
14
13
1/
1#
#175000
1"
0!
1.
0-
02
11
04
15
#180000
1!
1-
12
05
03
0/
0#
#185000
0!
0"
0-
0.
01
02
15
14
#190000
1!
1"
1-
1.
11
12
05
04
#200000
0!
0-
02
15
13
1/
1#
#205000
1!
0"
1-
0.
01
12
05
14
#215000
1"
1.
11
04
03
0/
0#
#220000
0!
0-
02
15
13
1/
1#
#225000
0"
0.
01
14
03
0/
0#
#230000
1!
1-
12
05
13
1/
1#
#235000
0!
1"
0-
1.
11
02
15
04
#240000
0"
0.
01
14
03
0/
0#
#245000
1"
1.
11
04
13
1/
1#
#250000
0"
0.
01
14
03
0/
0#
#255000
1"
1!
1.
1-
12
11
04
05
#260000
0!
0-
02
15
13
1/
1#
#265000
0"
0.
01
14
03
0/
0#
#275000
1"
1.
11
04
13
1/
1#
#280000
0"
1!
0.
1-
12
01
14
05
#290000
1"
1.
11
04
03
0/
0#
#295000
0"
0!
0.
0-
02
01
14
15
#305000
1"
1.
11
04
13
1/
1#
#315000
0"
0.
01
14
03
0/
0#
#320000
1"
1.
11
04
13
1/
1#
#330000
1!
1-
12
05
03
0/
0#
#335000
0!
0"
0-
0.
01
02
15
14
#340000
1!
1-
12
05
13
1/
1#
#345000
0!
1"
0-
1.
11
02
15
04
#350000
1!
0"
1-
0.
01
12
05
14
#355000
0!
0-
02
15
03
0/
0#
#370000
1!
1-
12
05
13
1/
1#
#375000
1"
1.
11
04
03
0/
0#
#380000
0"
0!
0.
0-
02
01
14
15
#385000
1!
1-
12
05
13
1/
1#
#395000
1"
1.
11
04
03
0/
0#
#400000
0"
0!
0.
0-
02
01
14
15
#410000
1!
1-
12
05
13
1/
1#
#415000
1"
1.
11
04
03
0/
0#
#425000
0"
0!
0.
0-
02
01
14
15
#435000
1"
1.
11
04
13
1/
1#
#440000
0"
0.
01
14
03
0/
0#
#445000
1!
1-
12
05
13
1/
1#
#450000
1"
1.
11
04
03
0/
0#
#460000
0"
0.
01
14
13
1/
1#
#475000
0!
0-
02
15
03
0/
0#
#480000
1"
1.
11
04
13
1/
1#
#485000
1!
1-
12
05
03
0/
0#
#495000
0"
0.
01
14
13
1/
1#
#500000
1"
0!
1.
0-
02
11
04
15
#510000
0"
0.
01
14
03
0/
0#
#520000
1"
1!
1.
1-
12
11
04
05
#525000
0"
0!
0.
0-
02
01
14
15
#535000
1!
1-
12
05
13
1/
1#
#540000
1"
1.
11
04
03
0/
0#
#550000
0!
0-
02
15
13
1/
1#
#555000
1!
0"
1-
0.
01
12
05
14
#560000
0!
1"
0-
1.
11
02
15
04
#565000
1!
0"
1-
0.
01
12
05
14
#570000
0!
0-
02
15
03
0/
0#
#580000
1!
1-
12
05
13
1/
1#
#585000
1"
1.
11
04
03
0/
0#
#590000
0"
0!
0.
0-
02
01
14
15
#600000
1"
1.
11
04
13
1/
1#
#605000
0"
1!
0.
1-
12
01
14
05
#615000
1"
0!
1.
0-
02
11
04
15
#620000
0"
1!
0.
1-
12
01
14
05
#630000
1"
0!
1.
0-
02
11
04
15
#635000
1!
1-
12
05
03
0/
0#
#640000
0"
0.
01
14
13
1/
1#
#645000
1"
0!
1.
0-
02
11
04
15
#655000
0"
0.
01
14
03
0/
0#
#660000
1!
1-
12
05
13
1/
1#
#665000
0!
0-
02
15
03
0/
0#
#670000
1"
1.
11
04
13
1/
1#
#680000
1!
1-
12
05
03
0/
0#
#685000
0"
0.
01
14
13
1/
1#
#690000
1"
0!
1.
0-
02
11
04
15
#695000
0"
0.
01
14
03
0/
0#
#700000
1"
1.
11
04
13
1/
1#
#725000
0"
0.
01
14
03
0/
0#
#740000
1!
1-
12
05
13
1/
1#
#755000
1"
1.
11
04
03
0/
0#
#760000
0"
0.
01
14
13
1/
1#
#765000
1"
0!
1.
0-
02
11
04
15
#770000
0"
1!
0.
1-
12
01
14
05
#775000
1"
1.
11
04
03
0/
0#
#780000
0"
0!
0.
0-
02
01
14
15
#785000
1"
1!
1.
1-
12
11
04
05
#790000
0!
0-
02
15
13
1/
1#
#795000
1!
1-
12
05
03
0/
0#
#800000
0!
0-
02
15
13
1/
1#
#805000
0"
0.
01
14
03
0/
0#
#810000
1"
1.
11
04
13
1/
1#
#815000
0"
1!
0.
1-
12
01
14
05
#820000
1"
0!
1.
0-
02
11
04
15
#825000
1!
1-
12
05
03
0/
0#
#830000
0!
0"
0-
0.
01
02
15
14
#845000
1"
1.
11
04
13
1/
1#
#850000
0"
1!
0.
1-
12
01
14
05
#855000
1"
0!
1.
0-
02
11
04
15
#865000
0"
1!
0.
1-
12
01
14
05
#870000
1"
0!
1.
0-
02
11
04
15
#880000
0"
0.
01
14
03
0/
0#
#885000
1!
1-
12
05
13
1/
1#
#890000
0!
0-
02
15
03
0/
0#
#895000
1!
1"
1-
1.
11
12
05
04
#900000
0!
0"
0-
0.
01
02
15
14
#905000
1!
1"
1-
1.
11
12
05
04
#920000
0!
0"
0-
0.
01
02
15
14
#925000
1!
1-
12
05
13
1/
1#
#930000
0!
1"
0-
1.
11
02
15
04
#935000
1!
1-
12
05
03
0/
0#
#945000
0!
0"
0-
0.
01
02
15
14
#950000
1!
1-
12
05
13
1/
1#
#955000
0!
1"
0-
1.
11
02
15
04
#960000
1!
1-
12
05
03
0/
0#
#965000
0!
0-
02
15
13
1/
1#
#970000
0"
0.
01
14
03
0/
0#
#975000
1"
1!
1.
1-
12
11
04
05
#990000
0"
0!
0.
0-
02
01
14
15
#995000
1"
1!
1.
1-
12
11
04
05
