Ejemplo6_AluModular/simulation/qsim/Modular.msim.vcd
$comment
	File created using the following command:
		vcd file Modular.msim.vcd -direction
$end
$date
	Wed Jul 14 15:49:44 2021
$end
$version
	ModelSim Version 10.5b
$end
$timescale
	1ps
$end

$scope module alumodular_vhd_vec_tst $end
$var wire 1 ! A [7] $end
$var wire 1 " A [6] $end
$var wire 1 # A [5] $end
$var wire 1 $ A [4] $end
$var wire 1 % A [3] $end
$var wire 1 & A [2] $end
$var wire 1 ' A [1] $end
$var wire 1 ( A [0] $end
$var wire 1 ) B [7] $end
$var wire 1 * B [6] $end
$var wire 1 + B [5] $end
$var wire 1 , B [4] $end
$var wire 1 - B [3] $end
$var wire 1 . B [2] $end
$var wire 1 / B [1] $end
$var wire 1 0 B [0] $end
$var wire 1 1 en $end
$var wire 1 2 sel [2] $end
$var wire 1 3 sel [1] $end
$var wire 1 4 sel [0] $end
$var wire 1 5 Y [8] $end
$var wire 1 6 Y [7] $end
$var wire 1 7 Y [6] $end
$var wire 1 8 Y [5] $end
$var wire 1 9 Y [4] $end
$var wire 1 : Y [3] $end
$var wire 1 ; Y [2] $end
$var wire 1 < Y [1] $end
$var wire 1 = Y [0] $end

$scope module i1 $end
$var wire 1 > gnd $end
$var wire 1 ? vcc $end
$var wire 1 @ unknown $end
$var wire 1 A devoe $end
$var wire 1 B devclrn $end
$var wire 1 C devpor $end
$var wire 1 D ww_devoe $end
$var wire 1 E ww_devclrn $end
$var wire 1 F ww_devpor $end
$var wire 1 G ww_Y [8] $end
$var wire 1 H ww_Y [7] $end
$var wire 1 I ww_Y [6] $end
$var wire 1 J ww_Y [5] $end
$var wire 1 K ww_Y [4] $end
$var wire 1 L ww_Y [3] $end
$var wire 1 M ww_Y [2] $end
$var wire 1 N ww_Y [1] $end
$var wire 1 O ww_Y [0] $end
$var wire 1 P ww_en $end
$var wire 1 Q ww_A [7] $end
$var wire 1 R ww_A [6] $end
$var wire 1 S ww_A [5] $end
$var wire 1 T ww_A [4] $end
$var wire 1 U ww_A [3] $end
$var wire 1 V ww_A [2] $end
$var wire 1 W ww_A [1] $end
$var wire 1 X ww_A [0] $end
$var wire 1 Y ww_B [7] $end
$var wire 1 Z ww_B [6] $end
$var wire 1 [ ww_B [5] $end
$var wire 1 \ ww_B [4] $end
$var wire 1 ] ww_B [3] $end
$var wire 1 ^ ww_B [2] $end
$var wire 1 _ ww_B [1] $end
$var wire 1 ` ww_B [0] $end
$var wire 1 a ww_sel [2] $end
$var wire 1 b ww_sel [1] $end
$var wire 1 c ww_sel [0] $end
$var wire 1 d \~QUARTUS_CREATED_GND~I_combout\ $end
$var wire 1 e \sel[0]~input_o\ $end
$var wire 1 f \A[7]~input_o\ $end
$var wire 1 g \B[7]~input_o\ $end
$var wire 1 h \A[6]~input_o\ $end
$var wire 1 i \B[6]~input_o\ $end
$var wire 1 j \A[5]~input_o\ $end
$var wire 1 k \B[5]~input_o\ $end
$var wire 1 l \A[4]~input_o\ $end
$var wire 1 m \B[4]~input_o\ $end
$var wire 1 n \A[3]~input_o\ $end
$var wire 1 o \B[3]~input_o\ $end
$var wire 1 p \B[2]~input_o\ $end
$var wire 1 q \A[2]~input_o\ $end
$var wire 1 r \A[1]~input_o\ $end
$var wire 1 s \B[1]~input_o\ $end
$var wire 1 t \A[0]~input_o\ $end
$var wire 1 u \B[0]~input_o\ $end
$var wire 1 v \inst13|S[0]~34\ $end
$var wire 1 w \inst13|S[0]~35\ $end
$var wire 1 x \inst13|S[1]~30\ $end
$var wire 1 y \inst13|S[1]~31\ $end
$var wire 1 z \inst13|S[2]~26\ $end
$var wire 1 { \inst13|S[2]~27\ $end
$var wire 1 | \inst13|S[3]~22\ $end
$var wire 1 } \inst13|S[3]~23\ $end
$var wire 1 ~ \inst13|S[4]~18\ $end
$var wire 1 !! \inst13|S[4]~19\ $end
$var wire 1 "! \inst13|S[5]~14\ $end
$var wire 1 #! \inst13|S[5]~15\ $end
$var wire 1 $! \inst13|S[6]~10\ $end
$var wire 1 %! \inst13|S[6]~11\ $end
$var wire 1 &! \inst13|S[7]~6\ $end
$var wire 1 '! \inst13|S[7]~7\ $end
$var wire 1 (! \inst13|S[8]~1_sumout\ $end
$var wire 1 )! \sel[1]~input_o\ $end
$var wire 1 *! \en~input_o\ $end
$var wire 1 +! \sel[2]~input_o\ $end
$var wire 1 ,! \inst|Q[8]~0_combout\ $end
$var wire 1 -! \inst4|Add0~30\ $end
$var wire 1 .! \inst4|Add0~26\ $end
$var wire 1 /! \inst4|Add0~22\ $end
$var wire 1 0! \inst4|Add0~18\ $end
$var wire 1 1! \inst4|Add0~14\ $end
$var wire 1 2! \inst4|Add0~10\ $end
$var wire 1 3! \inst4|Add0~6\ $end
$var wire 1 4! \inst4|Add0~1_sumout\ $end
$var wire 1 5! \inst1|Add0~30\ $end
$var wire 1 6! \inst1|Add0~26\ $end
$var wire 1 7! \inst1|Add0~22\ $end
$var wire 1 8! \inst1|Add0~18\ $end
$var wire 1 9! \inst1|Add0~14\ $end
$var wire 1 :! \inst1|Add0~10\ $end
$var wire 1 ;! \inst1|Add0~6\ $end
$var wire 1 <! \inst1|Add0~1_sumout\ $end
$var wire 1 =! \inst13|S[7]~5_sumout\ $end
$var wire 1 >! \inst3|Add0~30\ $end
$var wire 1 ?! \inst3|Add0~26\ $end
$var wire 1 @! \inst3|Add0~22\ $end
$var wire 1 A! \inst3|Add0~18\ $end
$var wire 1 B! \inst3|Add0~14\ $end
$var wire 1 C! \inst3|Add0~10\ $end
$var wire 1 D! \inst3|Add0~6\ $end
$var wire 1 E! \inst3|Add0~1_sumout\ $end
$var wire 1 F! \inst|Q[7]~1_combout\ $end
$var wire 1 G! \inst|Q[7]~36_combout\ $end
$var wire 1 H! \inst4|Add0~5_sumout\ $end
$var wire 1 I! \inst1|Add0~5_sumout\ $end
$var wire 1 J! \inst13|S[6]~9_sumout\ $end
$var wire 1 K! \inst3|Add0~5_sumout\ $end
$var wire 1 L! \inst|Q[6]~2_combout\ $end
$var wire 1 M! \inst|Q[6]~32_combout\ $end
$var wire 1 N! \inst3|Add0~9_sumout\ $end
$var wire 1 O! \inst4|Add0~9_sumout\ $end
$var wire 1 P! \inst13|S[5]~13_sumout\ $end
$var wire 1 Q! \inst1|Add0~9_sumout\ $end
$var wire 1 R! \inst|Q[5]~3_combout\ $end
$var wire 1 S! \inst|Q[5]~28_combout\ $end
$var wire 1 T! \inst4|Add0~13_sumout\ $end
$var wire 1 U! \inst1|Add0~13_sumout\ $end
$var wire 1 V! \inst13|S[4]~17_sumout\ $end
$var wire 1 W! \inst3|Add0~13_sumout\ $end
$var wire 1 X! \inst|Q[4]~4_combout\ $end
$var wire 1 Y! \inst|Q[4]~24_combout\ $end
$var wire 1 Z! \inst4|Add0~17_sumout\ $end
$var wire 1 [! \inst13|S[3]~21_sumout\ $end
$var wire 1 \! \inst1|Add0~17_sumout\ $end
$var wire 1 ]! \inst3|Add0~17_sumout\ $end
$var wire 1 ^! \inst|Q[3]~5_combout\ $end
$var wire 1 _! \inst|Q[3]~20_combout\ $end
$var wire 1 `! \inst1|Add0~21_sumout\ $end
$var wire 1 a! \inst13|S[2]~25_sumout\ $end
$var wire 1 b! \inst4|Add0~21_sumout\ $end
$var wire 1 c! \inst3|Add0~21_sumout\ $end
$var wire 1 d! \inst|Q[2]~6_combout\ $end
$var wire 1 e! \inst|Q[2]~16_combout\ $end
$var wire 1 f! \inst4|Add0~25_sumout\ $end
$var wire 1 g! \inst13|S[1]~29_sumout\ $end
$var wire 1 h! \inst3|Add0~25_sumout\ $end
$var wire 1 i! \inst1|Add0~25_sumout\ $end
$var wire 1 j! \inst|Q[1]~7_combout\ $end
$var wire 1 k! \inst|Q[1]~12_combout\ $end
$var wire 1 l! \inst4|Add0~29_sumout\ $end
$var wire 1 m! \inst13|S[0]~33_sumout\ $end
$var wire 1 n! \inst1|Add0~29_sumout\ $end
$var wire 1 o! \inst|Mux8~0_combout\ $end
$var wire 1 p! \inst3|Add0~29_sumout\ $end
$var wire 1 q! \inst|Q[0]~8_combout\ $end
$var wire 1 r! \inst4|ALT_INV_Add0~29_sumout\ $end
$var wire 1 s! \inst3|ALT_INV_Add0~29_sumout\ $end
$var wire 1 t! \inst1|ALT_INV_Add0~29_sumout\ $end
$var wire 1 u! \inst13|ALT_INV_S[0]~33_sumout\ $end
$var wire 1 v! \inst4|ALT_INV_Add0~25_sumout\ $end
$var wire 1 w! \inst3|ALT_INV_Add0~25_sumout\ $end
$var wire 1 x! \inst13|ALT_INV_S[1]~29_sumout\ $end
$var wire 1 y! \inst1|ALT_INV_Add0~25_sumout\ $end
$var wire 1 z! \inst4|ALT_INV_Add0~21_sumout\ $end
$var wire 1 {! \inst3|ALT_INV_Add0~21_sumout\ $end
$var wire 1 |! \inst13|ALT_INV_S[2]~25_sumout\ $end
$var wire 1 }! \inst1|ALT_INV_Add0~21_sumout\ $end
$var wire 1 ~! \inst4|ALT_INV_Add0~17_sumout\ $end
$var wire 1 !" \inst3|ALT_INV_Add0~17_sumout\ $end
$var wire 1 "" \inst13|ALT_INV_S[3]~21_sumout\ $end
$var wire 1 #" \inst1|ALT_INV_Add0~17_sumout\ $end
$var wire 1 $" \inst4|ALT_INV_Add0~13_sumout\ $end
$var wire 1 %" \inst3|ALT_INV_Add0~13_sumout\ $end
$var wire 1 &" \inst13|ALT_INV_S[4]~17_sumout\ $end
$var wire 1 '" \inst1|ALT_INV_Add0~13_sumout\ $end
$var wire 1 (" \inst4|ALT_INV_Add0~9_sumout\ $end
$var wire 1 )" \inst3|ALT_INV_Add0~9_sumout\ $end
$var wire 1 *" \inst13|ALT_INV_S[5]~13_sumout\ $end
$var wire 1 +" \inst1|ALT_INV_Add0~9_sumout\ $end
$var wire 1 ," \inst4|ALT_INV_Add0~5_sumout\ $end
$var wire 1 -" \inst3|ALT_INV_Add0~5_sumout\ $end
$var wire 1 ." \inst13|ALT_INV_S[6]~9_sumout\ $end
$var wire 1 /" \inst1|ALT_INV_Add0~5_sumout\ $end
$var wire 1 0" \inst4|ALT_INV_Add0~1_sumout\ $end
$var wire 1 1" \inst3|ALT_INV_Add0~1_sumout\ $end
$var wire 1 2" \inst13|ALT_INV_S[7]~5_sumout\ $end
$var wire 1 3" \inst1|ALT_INV_Add0~1_sumout\ $end
$var wire 1 4" \inst13|ALT_INV_S[8]~1_sumout\ $end
$var wire 1 5" \ALT_INV_B[0]~input_o\ $end
$var wire 1 6" \ALT_INV_A[0]~input_o\ $end
$var wire 1 7" \ALT_INV_B[1]~input_o\ $end
$var wire 1 8" \ALT_INV_A[1]~input_o\ $end
$var wire 1 9" \ALT_INV_B[2]~input_o\ $end
$var wire 1 :" \ALT_INV_A[2]~input_o\ $end
$var wire 1 ;" \ALT_INV_B[3]~input_o\ $end
$var wire 1 <" \ALT_INV_A[3]~input_o\ $end
$var wire 1 =" \ALT_INV_B[4]~input_o\ $end
$var wire 1 >" \ALT_INV_A[4]~input_o\ $end
$var wire 1 ?" \ALT_INV_B[5]~input_o\ $end
$var wire 1 @" \ALT_INV_A[5]~input_o\ $end
$var wire 1 A" \ALT_INV_B[6]~input_o\ $end
$var wire 1 B" \ALT_INV_A[6]~input_o\ $end
$var wire 1 C" \ALT_INV_B[7]~input_o\ $end
$var wire 1 D" \ALT_INV_A[7]~input_o\ $end
$var wire 1 E" \ALT_INV_sel[1]~input_o\ $end
$var wire 1 F" \ALT_INV_sel[2]~input_o\ $end
$var wire 1 G" \ALT_INV_sel[0]~input_o\ $end
$var wire 1 H" \ALT_INV_en~input_o\ $end
$var wire 1 I" \inst|ALT_INV_Mux8~0_combout\ $end
$var wire 1 J" \inst|ALT_INV_Q[1]~7_combout\ $end
$var wire 1 K" \inst|ALT_INV_Q[2]~6_combout\ $end
$var wire 1 L" \inst|ALT_INV_Q[3]~5_combout\ $end
$var wire 1 M" \inst|ALT_INV_Q[4]~4_combout\ $end
$var wire 1 N" \inst|ALT_INV_Q[5]~3_combout\ $end
$var wire 1 O" \inst|ALT_INV_Q[6]~2_combout\ $end
$var wire 1 P" \inst|ALT_INV_Q[7]~1_combout\ $end
$upscope $end
$upscope $end
$enddefinitions $end
#0
$dumpvars
01
0>
1?
x@
1A
1B
1C
1D
1E
1F
0P
xd
1e
0f
1g
0h
0i
1j
0k
1l
0m
0n
0o
1p
0q
0r
0s
0t
1u
0v
0w
0x
0y
0z
0{
0|
0}
0~
1!!
0"!
1#!
1$!
0%!
0&!
0'!
1(!
1)!
0*!
0+!
0,!
0-!
0.!
0/!
00!
11!
12!
13!
04!
05!
06!
07!
08!
09!
0:!
0;!
1<!
1=!
0>!
0?!
0@!
0A!
0B!
0C!
0D!
0E!
0F!
0G!
0H!
0I!
0J!
0K!
0L!
0M!
1N!
1O!
1P!
1Q!
1R!
0S!
0T!
1U!
0V!
1W!
0X!
0Y!
1Z!
1[!
0\!
0]!
1^!
0_!
1`!
0a!
1b!
0c!
1d!
0e!
1f!
1g!
0h!
0i!
1j!
0k!
1l!
1m!
1n!
0o!
1p!
0q!
0r!
0s!
0t!
0u!
0v!
1w!
0x!
1y!
0z!
1{!
1|!
0}!
0~!
1!"
0""
1#"
1$"
0%"
1&"
0'"
0("
0)"
0*"
0+"
1,"
1-"
1."
1/"
10"
11"
02"
03"
04"
05"
16"
17"
18"
09"
1:"
1;"
1<"
1="
0>"
1?"
0@"
1A"
1B"
0C"
1D"
0E"
1F"
0G"
1H"
1I"
0J"
0K"
0L"
1M"
0N"
1O"
1P"
0!
0"
1#
1$
0%
0&
0'
0(
1)
0*
0+
0,
0-
1.
0/
10
02
13
14
0G
0H
0I
0J
0K
0L
0M
0N
0O
0Q
0R
1S
1T
0U
0V
0W
0X
1Y
0Z
0[
0\
0]
1^
0_
1`
0a
1b
1c
05
06
07
08
09
0:
0;
0<
0=
$end
#10000
12
1!
1"
1&
1*
1-
0.
1a
1V
1R
1Q
0^
1]
1Z
1i
1o
0p
1f
1h
1q
1+!
0F"
0:"
0B"
0D"
19"
0;"
0A"
0[!
1\!
0=!
1&!
14!
0<!
1E!
1H!
1;!
1K!
1{
0b!
1/!
1c!
0{!
1z!
0-"
0,"
01"
13"
00"
12"
0#"
1""
0Z!
10!
1[!
1<!
0(!
1F!
1L!
0d!
14"
03"
0""
1~!
1T!
1K"
0O"
0P"
0^!
0$"
1L"
1X!
0M"
#20000
0"
0&
0*
1.
03
1(
0)
1+
1/
1X
0V
0R
1_
1^
1[
0Z
0Y
0b
0)!
0g
0i
1k
1p
1s
0h
0q
1t
06"
1:"
1B"
07"
09"
0?"
1A"
1C"
1E"
0F!
0L!
0X!
1^!
1=!
0&!
1'!
0<!
0P!
1"!
0#!
0Q!
1:!
0g!
1i!
0H!
0;!
0K!
0{
1b!
0/!
0c!
0m!
1w
0l!
1-!
0n!
15!
0p!
1>!
1o!
0I"
1s!
1t!
1r!
1u!
1{!
0z!
1-"
1,"
0y!
1x!
1+"
1*"
13"
02"
0L"
1M"
1O"
1P"
1h!
0i!
16!
0f!
1.!
1g!
1Z!
00!
0[!
1<!
1I!
1F!
0R!
0j!
0o!
0/"
03"
1""
0~!
0x!
1v!
1y!
0w!
0T!
0b!
1/!
0`!
17!
1I"
1J"
1N"
0P"
1j!
0^!
1}!
1z!
1$"
0\!
18!
0Z!
10!
1L"
0J"
1~!
1#"
1T!
0U!
19!
1'"
0$"
1Q!
0+"
#30000
1&
1*
0.
1)
0/
02
0!
11
04
0#
1%
1,
1V
1U
0S
0Q
0_
0^
1\
1Z
1Y
0c
0a
1P
1*!
0+!
0e
1g
1i
1m
0p
0s
0f
0j
1n
1q
0:"
0<"
1@"
1D"
17"
19"
0="
0A"
0C"
1G"
1F"
0H"
1L!
1R!
0j!
1J!
0$!
0I!
1;!
1V!
0!!
1U!
0g!
1x
1i!
06!
1k!
0'!
04!
0E!
1G!
1P!
0"!
0O!
0Q!
0N!
1[!
1Z!
1\!
1]!
1{
1b!
1c!
0{!
0z!
0!"
0#"
0~!
0""
1)"
1+"
1("
0*"
11"
10"
0y!
1x!
0'"
0&"
1/"
0."
1J"
0N"
0O"
0[!
1|
0J!
1(!
1`!
07!
1a!
0P!
0<!
0=!
0L!
1X!
1j!
0R!
1^!
12"
13"
1*"
0|!
0}!
04"
1."
1""
1M!
1S!
0k!
0\!
0V!
1~
0L"
1N"
0J"
0M"
1O"
1H
1N
1d!
0F!
1&"
1#"
1P!
1P"
0K"
1<
16
0M!
1Y!
1k!
0S!
1_!
0^!
0*"
1L"
0N
1J
1I
1e!
0G!
0<
18
17
0_!
1L
0J
1N
1K
0I
1<
1:
19
08
07
0H
1M
1;
06
0L
0:
#40000
0*
0)
1/
12
1!
1"
13
0(
0+
0$
00
0`
1_
0[
0Z
0Y
1b
1a
0X
0T
1R
1Q
1f
1h
0l
0t
1+!
1)!
0g
0i
0k
1s
0u
15"
07"
1?"
1A"
1C"
0E"
0F"
16"
1>"
0B"
0D"
14!
1E!
1H!
1K!
1V!
0~
0T!
0U!
0W!
1l!
0-!
1p!
0>!
0Y!
1^!
1_!
0e!
1o!
1'!
1%!
0P!
1"!
1Q!
0:!
1S!
1g!
0x
0i!
16!
0k!
05!
1y!
0x!
0+"
1*"
0I"
0L"
0s!
0r!
1%"
1'"
1$"
0&"
0-"
0,"
01"
00"
1i!
06!
0`!
17!
0a!
1I!
0;!
1J!
1=!
0(!
0h!
1f!
0.!
1P!
0"!
1F!
1L!
0X!
1q!
0*"
0v!
1w!
14"
02"
0."
0/"
1|!
1}!
0y!
0J!
0b!
1<!
1\!
1`!
07!
1M"
0O"
0P"
0N
1J
0M
1L
0K
0j!
0}!
0#"
03"
1z!
1."
0\!
1J"
0<
0;
1:
09
18
1#"
1O
1=
#50000
1*
1)
0/
02
0"
03
1$
10
14
0,
0-
1`
0_
0]
0\
1Z
1Y
1c
0b
0a
1T
0R
0h
1l
0+!
0)!
1e
1g
1i
0m
0o
0s
1u
05"
17"
1;"
1="
0A"
0C"
0G"
1E"
1F"
0>"
1B"
0H!
0K!
1T!
1W!
0L!
1R!
0S!
1X!
0^!
0d!
1e!
1j!
0o!
0=!
1&!
0'!
0<!
1G!
0%!
1M!
1!!
1[!
0|
1}
1\!
08!
0g!
1x
0i!
1m!
0w
1n!
0t!
0u!
1y!
1x!
0#"
0""
13"
12"
1I"
0J"
1K"
1L"
0M"
0N"
1O"
0%"
0$"
1-"
1,"
1g!
0x
1a!
1U!
09!
0P!
1"!
1=!
0&!
0q!
0F!
1^!
0j!
1o!
02"
1*"
0'"
0|!
0x!
0M!
1S!
1Y!
0_!
0e!
1k!
1(!
1J!
0Q!
0a!
0I"
1J"
0L"
1P"
1I
1H
1M
0J
1j!
1d!
0R!
1F!
1|!
1+"
0."
04"
1q!
0P"
1N"
0K"
0J"
1;
08
17
16
0G!
1_!
0k!
1,!
1L!
0d!
0O
1K"
0O"
1N
0M
0L
1K
1J
0I
1k!
1e!
0S!
1G!
0=
1<
0;
0:
19
18
07
1O
1M!
0e!
1G
0N
1L
0H
1=
0<
1:
06
15
1H
0J
1M
1N
1<
1;
08
16
0M
1I
0;
17
#60000
0)
13
00
0!
1+
1.
1#
0%
0`
1^
1[
0Y
1b
0U
1S
0Q
0f
1j
0n
1)!
0g
1k
1p
0u
15"
09"
0?"
1C"
0E"
1<"
0@"
1D"
04!
0E!
1O!
1N!
0[!
1|
0}
0Z!
0\!
0]!
0,!
0L!
0o!
1:!
1a!
0{
0`!
17!
0m!
1w
0n!
1t!
1u!
1}!
0|!
1I"
1O"
1!"
1#"
1~!
1""
0)"
0("
11"
10"
0g!
1x
1\!
1[!
0|
0I!
1;!
0F!
1R!
0^!
1/"
0""
0#"
1x!
0M!
1<!
0V!
0a!
1z
1L"
0N"
1P"
0G
1|!
1&"
03"
0[!
1|
05
0G!
1S!
0_!
1""
1V!
0I
0&"
07
0L
1J
0H
0:
18
06
#70000
1)
1!
0.
1%
0*
1/
1"
1'
1_
0^
0Z
1Y
1W
1U
1R
1Q
1f
1h
1n
1r
1g
0i
0p
1s
07"
19"
1A"
0C"
08"
0<"
0B"
0D"
14!
1E!
1H!
1K!
1[!
0|
1}
1Z!
0\!
18!
1]!
0f!
1.!
1h!
1%!
1a!
0z
1{
1`!
07!
16!
0}!
0|!
0w!
1v!
0!"
1#"
0~!
0""
0-"
0,"
01"
00"
0`!
17!
1\!
08!
0=!
1&!
1b!
0U!
19!
1F!
1L!
1^!
0j!
1'"
0z!
12"
0#"
1}!
1Q!
0(!
1U!
09!
0\!
18!
1J"
0L"
0O"
0P"
1d!
1#"
0'"
14"
0+"
0U!
19!
0Q!
0K"
1G!
1M!
1_!
0k!
1+"
1'"
1Q!
1e!
0+"
0N
1L
1I
1H
0<
1:
17
16
1M
1;
#80000
1*
10
0+
0#
0$
1(
0&
1`
0[
1Z
1X
0V
0T
0S
0j
0l
0q
1t
1i
0k
1u
05"
1?"
0A"
06"
1:"
1>"
1@"
0O!
0N!
0V!
1~
0!!
0T!
1U!
09!
0W!
0a!
1z
0{
0b!
1`!
07!
0c!
0l!
1-!
0p!
1>!
0J!
1$!
0%!
1I!
0:!
15!
0/"
1."
1s!
1r!
1{!
0}!
1z!
1|!
1%"
0'"
1$"
1&"
1)"
1("
1i!
0I!
0h!
1?!
1f!
1\!
08!
0Q!
0R!
0X!
0d!
0q!
1+"
0#"
0v!
1w!
1/"
0y!
0U!
1c!
1K"
1M"
1N"
1j!
0{!
1'"
0J"
0S!
0Y!
0e!
0O
1k!
0=
0M
0K
0J
0;
09
08
1N
1<
#90000
0*
00
1+
1#
1$
0(
1&
0/
0"
0'
03
04
1,
0`
0_
1\
1[
0Z
0X
0W
1V
1T
1S
0R
0c
0b
0)!
0e
0h
1j
1l
1q
0r
0t
0i
1k
1m
0s
0u
15"
17"
0="
0?"
1A"
16"
18"
0:"
0>"
0@"
1B"
1G"
1E"
0L!
1d!
0H!
0K!
1O!
1N!
1T!
1W!
1a!
0z
1{
1b!
0`!
17!
0c!
1@!
0f!
1h!
0?!
1l!
0-!
1p!
0>!
0;!
1:!
19!
06!
05!
0s!
0r!
0w!
1v!
1{!
1}!
0z!
0|!
0%"
0$"
0)"
0("
1-"
1,"
0K"
1O"
0i!
1`!
07!
1Q!
1I!
0<!
0h!
1f!
0.!
1c!
0@!
0]!
1A!
0\!
18!
0d!
1#"
1!"
0{!
0v!
1w!
13"
0/"
0+"
0}!
1y!
0M!
1e!
1U!
0W!
1B!
1]!
0A!
0b!
1\!
08!
1K"
1R!
1L!
0F!
0j!
1d!
0^!
0#"
1z!
0!"
1%"
0'"
0U!
1W!
0B!
0N!
1C!
1L"
0K"
1J"
1P"
0O"
0N"
0e!
1X!
1^!
1)"
0%"
1'"
1K!
1N!
0C!
0L"
0M"
1M
0I
1S!
1M!
0G!
0k!
1e!
0_!
0X!
0)"
0-"
0K!
1M"
1;
07
1Y!
1_!
1-"
0M
0Y!
0;
0L
1M
0N
0H
1I
1J
0<
1;
0:
18
17
06
1L
1K
1:
19
0K
09
#100000
1*
10
0+
0#
0$
1(
0&
1'
13
14
0,
0)
0!
1.
0%
12
1`
1^
0\
0[
1Z
0Y
1X
1W
0V
0U
0T
0S
0Q
1c
1b
1a
1+!
1)!
1e
0f
0j
0l
0n
0q
1r
1t
0g
1i
0k
0m
1p
1u
05"
09"
1="
1?"
0A"
1C"
06"
08"
1:"
1<"
1>"
1@"
1D"
0G"
0E"
0F"
1,!
1F!
0L!
1X!
0d!
1j!
1q!
04!
0E!
0O!
0N!
0T!
0W!
0[!
1|
0}
0Z!
0\!
0]!
1b!
0/!
0c!
1g!
0x
1y
0f!
1.!
1i!
1h!
1k!
0l!
1-!
0p!
1>!
1o!
1G!
1J!
0$!
0I!
1;!
0:!
09!
1Y!
0{
15!
1/"
0."
0I"
1s!
1r!
0w!
0y!
1v!
0x!
1{!
0z!
1!"
1#"
1~!
1""
1%"
1$"
1)"
1("
11"
10"
0J"
1K"
0M"
1O"
0P"
0i!
16!
1[!
0|
0Q!
1I!
0;!
1<!
1=!
0&!
0h!
1?!
1f!
0b!
1/!
1Z!
00!
0F!
0R!
0X!
0^!
1d!
0j!
0~!
1z!
0v!
1w!
02"
03"
0/"
1+"
0""
1y!
1T!
01!
0Z!
10!
1c!
1(!
0<!
1V!
0~
0`!
17!
1J"
0K"
1L"
1M"
1N"
1P"
1K
1H
1N
1O
1G
1j!
0d!
1^!
1}!
0&"
13"
04"
0{!
1~!
0$"
1\!
1P!
0"!
0T!
11!
1O!
02!
0L"
1K"
0J"
1=
1<
19
16
15
0^!
1X!
0("
1$"
0*"
0#"
1H!
03!
0O!
12!
0J!
0M"
1L"
0X!
1R!
1."
1("
0,"
0H!
13!
14!
0N"
1M"
0R!
1L!
00"
1,"
04!
0O"
1N"
0L!
1F!
10"
0P"
1O"
0F!
1P"
#110000
00
1+
1,
1)
1%
1/
1"
0`
1_
1\
1[
1Y
1U
1R
1h
1n
1g
1k
1m
1s
0u
15"
07"
0="
0?"
0C"
0<"
0B"
1J!
1H!
0I!
1;!
1K!
0[!
1}
1Z!
0\!
18!
1]!
0=!
1<!
0P!
1Q!
0V!
1U!
0g!
1x
0y
1i!
1m!
1n!
05!
0t!
0u!
0y!
1x!
0'"
1&"
0+"
1*"
03"
12"
0!"
1#"
0~!
1""
0-"
1/"
0,"
0."
0i!
0U!
19!
1V!
0<!
1L!
1^!
0o!
13"
0&"
1'"
1y!
0Q!
1:!
1I"
0L"
0O"
1+"
1I!
0/"
#120000
10
0+
0,
0)
0/
0"
1#
1$
0'
1!
02
1`
0_
0\
0[
0Y
0W
1T
1S
0R
1Q
0a
0+!
1f
0h
1j
1l
0r
0g
0k
0m
0s
1u
05"
17"
1="
1?"
1C"
18"
0>"
0@"
1B"
0D"
1F"
0,!
0e!
0q!
14!
1E!
0J!
0H!
0I!
0K!
1O!
1N!
1T!
1W!
0f!
1h!
0?!
1'!
0G!
1#!
0S!
1!!
0Y!
06!
0m!
0n!
15!
1t!
1u!
0w!
1v!
0%"
0$"
0)"
0("
1-"
1/"
1,"
1."
01"
00"
1i!
1`!
07!
1P!
1J!
0(!
0c!
1F!
0L!
1R!
1X!
0j!
1{!
14"
0."
0*"
0}!
0y!
1\!
08!
1J"
0M"
0N"
1O"
0P"
0K
0J
0H
0O
0M
0G
0#"
1U!
09!
0=
0;
09
08
06
05
1G!
0M!
1S!
1Y!
0k!
0'"
1Q!
0:!
0+"
1I!
0;!
0/"
0N
1K
1J
0I
1H
1<!
03"
0<
19
18
07
16
#130000
1+
1,
0#
0!
0*
04
0.
1-
0^
1]
1\
1[
0Z
0S
0Q
0c
0e
0f
0j
0i
1k
1m
1o
0p
19"
0;"
0="
0?"
1A"
1@"
1D"
1G"
1j!
1=!
0'!
04!
0<!
0E!
0O!
0N!
0J!
1$!
0I!
0#!
0V!
1~
0!!
0U!
19!
1[!
0}
0\!
18!
0a!
1z
0`!
1}!
1|!
1#"
0""
1'"
1&"
1/"
1."
1)"
1("
11"
13"
10"
02"
0J"
0[!
1|
1U!
1V!
0~
0Q!
1:!
1J!
0$!
0=!
1&!
1(!
0F!
0R!
04"
12"
0."
1+"
0&"
0'"
1""
1k!
0(!
1=!
0&!
1I!
0P!
0V!
1~
1N"
1P"
1&"
1*"
0/"
02"
14"
1P!
1(!
0G!
0S!
04"
0*"
1N
1<
0J
0H
08
06
#140000
0+
0,
1!
1*
1.
00
1)
1/
1"
12
0`
1_
1^
0\
0[
1Z
1Y
1R
1Q
1a
1+!
1f
1h
1g
1i
0k
0m
1p
1s
0u
15"
07"
09"
1="
1?"
0A"
0C"
0B"
0D"
0F"
1o!
14!
1E!
1H!
1K!
1G!
1;!
1M!
0P!
1"!
1Q!
0:!
1S!
1V!
0~
1!!
0U!
0Y!
1a!
0z
1`!
1g!
0x
0i!
16!
0k!
1m!
1n!
05!
0t!
0u!
1y!
0x!
0}!
0|!
1'"
0&"
0+"
1*"
0-"
0,"
01"
00"
0I"
1i!
06!
0`!
17!
0a!
1[!
0|
0I!
0J!
1$!
1<!
1q!
1F!
1L!
0o!
03"
1."
1/"
0""
1|!
1}!
0y!
0=!
1&!
0V!
1\!
1`!
07!
1I"
0O"
0P"
0N
0K
1J
1I
1H
0}!
0#"
1&"
12"
0q!
0\!
0(!
0<
09
18
17
16
14"
1#"
1O
1=
0O
0=
#150000
0!
0*
02
1#
0-
1'
0%
0(
0X
1W
0U
1S
0Q
0]
0Z
0a
0+!
0i
0o
0f
1j
0n
1r
0t
16"
08"
1<"
0@"
1D"
1;"
1A"
1F"
1Y!
1J!
0$!
1%!
1I!
0;!
1=!
0&!
04!
0<!
0E!
1P!
0"!
1#!
1O!
0Q!
1:!
1N!
0S!
0Z!
08!
0]!
0g!
1x
1f!
0i!
16!
0h!
1?!
1k!
0m!
1l!
0-!
0n!
1p!
0>!
0s!
1t!
0r!
1u!
1w!
1y!
0v!
1x!
1!"
1~!
0)"
1+"
0("
0*"
11"
13"
10"
02"
0/"
0."
1h!
0?!
0f!
1c!
0`!
17!
1a!
1U!
09!
0I!
1;!
1(!
1<!
0F!
1R!
0^!
0j!
03"
04"
1/"
0'"
0|!
1}!
0{!
1v!
0w!
1q!
0<!
1Q!
0:!
1\!
0c!
1J"
1L"
0N"
1P"
1N
0J
1K
1j!
1d!
1{!
0#"
0+"
13"
1I!
0;!
0K"
0J"
1<
19
08
0G!
1S!
0_!
0k!
0d!
0/"
1<!
1K"
1O
1k!
1e!
03"
1=
0e!
0N
0L
1J
0H
0<
0:
18
06
1M
1N
1<
1;
0M
0;
